<svg width="314" height="239" viewBox="0 0 314 239" fill="none" xmlns="http://www.w3.org/2000/svg">
<g clip-path="url(#clip0)">
<path opacity="0.1" d="M295.218 129.202C284.179 144.349 287.822 165.97 294.203 183.195C296.34 188.961 298.768 195.06 297.66 201.334C296.307 209.004 289.946 214.75 283.333 217.88C271.279 223.584 257.04 222.673 246.258 215.486C236.953 209.283 230.403 198.974 220.917 193.067C205.043 183.184 184.434 187.6 166.766 195.145C154.266 200.483 140.574 207.357 128.393 202.428C119.821 198.96 114.05 190.132 111.013 180.694C109.547 176.138 108.52 171.192 105.599 167.625C103.862 165.505 101.567 164.027 99.2069 162.792C77.6675 151.514 49.9615 158.563 29.0791 145.979C14.9808 137.48 6.20606 120.988 2.56024 103.65C-1.08558 86.3118 -0.183284 68.0093 1.26884 50.0199C2.30084 37.2356 3.93342 23.5743 11.6198 13.5279C19.7489 2.90624 33.3735 -1.31479 45.5572 0.348812C57.741 2.01241 68.6643 8.77959 78.2201 16.8579C90.1727 26.9354 101.169 39.5872 116.035 43.4135C126.16 46.0188 136.917 44.1748 147.443 43.3599C165.037 42.0008 182.57 43.5657 199.996 45.3336C216.677 47.0254 233.473 48.9146 249.272 54.4609C260.452 58.3858 269.314 65.8044 279.84 70.8741C286.7 74.1788 294.248 74.9457 300.705 79.2147C308.674 84.4733 315.875 93.7895 313.538 104.969C311.33 115.597 301.083 121.163 295.218 129.202Z" fill="#009E8E"/>
<g opacity="0.5">
<path opacity="0.5" d="M241.078 198.29C241.078 198.29 242.008 170.725 256.922 155.149C263.181 148.613 267.292 140.312 268.381 131.328C268.89 127.065 269.007 122.764 268.73 118.479" stroke="#535461" stroke-width="0.563932" stroke-miterlimit="10"/>
<path opacity="0.5" d="M278.072 108.613C277.051 111.692 268.519 118.764 268.519 118.764C268.519 118.764 265.905 107.99 266.926 104.914C267.169 104.182 267.553 103.505 268.057 102.922C268.562 102.339 269.176 101.86 269.865 101.514C270.554 101.169 271.305 100.962 272.074 100.906C272.843 100.85 273.615 100.946 274.347 101.189C275.079 101.432 275.756 101.816 276.339 102.321C276.922 102.825 277.401 103.439 277.747 104.128C278.092 104.817 278.299 105.568 278.355 106.337C278.411 107.106 278.315 107.879 278.072 108.61V108.613Z" fill="#009E8E"/>
<path opacity="0.5" d="M281.628 128.717C279.09 130.748 268.093 132.05 268.093 132.05C268.093 132.05 271.759 121.586 274.297 119.559C274.893 119.04 275.589 118.646 276.342 118.402C277.095 118.159 277.889 118.069 278.677 118.14C279.465 118.211 280.231 118.441 280.928 118.815C281.625 119.189 282.239 119.701 282.734 120.319C283.228 120.936 283.593 121.648 283.805 122.41C284.018 123.172 284.074 123.969 283.971 124.754C283.868 125.538 283.607 126.294 283.204 126.975C282.801 127.656 282.265 128.249 281.628 128.717Z" fill="#009E8E"/>
<path opacity="0.5" d="M271.567 157.715C268.358 158.188 258.199 153.767 258.199 153.767C258.199 153.767 266.641 146.583 269.85 146.109C270.613 145.996 271.39 146.035 272.138 146.223C272.886 146.41 273.589 146.744 274.209 147.203C274.828 147.663 275.35 148.24 275.746 148.902C276.142 149.563 276.404 150.296 276.517 151.059C276.63 151.822 276.591 152.599 276.403 153.347C276.216 154.095 275.882 154.799 275.423 155.418C274.963 156.037 274.386 156.559 273.724 156.955C273.063 157.351 272.33 157.613 271.567 157.726V157.715Z" fill="#009E8E"/>
<path opacity="0.5" d="M259.011 177.943C255.929 178.952 245.167 176.302 245.167 176.302C245.167 176.302 252.275 167.795 255.357 166.786C256.836 166.3 258.448 166.421 259.838 167.124C261.228 167.826 262.282 169.052 262.768 170.532C263.254 172.011 263.133 173.623 262.43 175.013C261.728 176.403 260.502 177.457 259.022 177.943H259.011Z" fill="#009E8E"/>
<path opacity="0.5" d="M256.191 128.765C257.689 131.641 267.247 137.272 267.247 137.272C267.247 137.272 268.116 126.222 266.619 123.343C266.263 122.659 265.776 122.052 265.185 121.556C264.595 121.061 263.912 120.686 263.177 120.454C262.442 120.222 261.668 120.137 260.9 120.204C260.132 120.271 259.385 120.489 258.701 120.845C258.017 121.201 257.41 121.688 256.914 122.278C256.418 122.869 256.044 123.551 255.812 124.286C255.58 125.022 255.495 125.795 255.562 126.563C255.629 127.331 255.847 128.079 256.203 128.763L256.191 128.765Z" fill="#009E8E"/>
<path opacity="0.5" d="M241.808 152.606C244.098 154.904 254.892 157.419 254.892 157.419C254.892 157.419 252.413 146.614 250.126 144.316C249.027 143.213 247.535 142.591 245.978 142.589C244.421 142.586 242.927 143.201 241.824 144.3C240.721 145.399 240.099 146.891 240.097 148.448C240.094 150.005 240.709 151.5 241.808 152.603V152.606Z" fill="#009E8E"/>
<path opacity="0.5" d="M231.009 177.698C232.876 180.348 243.091 184.654 243.091 184.654C243.091 184.654 242.477 173.587 240.607 170.933C240.175 170.276 239.614 169.711 238.959 169.275C238.304 168.838 237.568 168.537 236.795 168.391C236.021 168.244 235.226 168.255 234.457 168.422C233.688 168.589 232.96 168.909 232.317 169.363C231.673 169.817 231.128 170.395 230.713 171.064C230.298 171.733 230.022 172.479 229.901 173.257C229.78 174.035 229.817 174.829 230.009 175.592C230.201 176.356 230.545 177.073 231.02 177.701L231.009 177.698Z" fill="#009E8E"/>
<path opacity="0.5" d="M244.354 186.881C244.354 186.881 235.896 174.576 237.379 162.999C238.032 158.147 237.094 153.214 234.706 148.94C233.556 146.92 232.223 145.01 230.724 143.233" stroke="#535461" stroke-width="0.563932" stroke-miterlimit="10"/>
<path opacity="0.5" d="M231.618 135.93C232.162 137.599 230.724 143.425 230.724 143.425C230.724 143.425 226.12 139.573 225.576 137.907C225.314 137.105 225.381 136.233 225.763 135.481C226.144 134.73 226.809 134.16 227.61 133.899C228.411 133.637 229.284 133.704 230.035 134.086C230.787 134.467 231.356 135.132 231.618 135.933V135.93Z" fill="#009E8E"/>
<path opacity="0.5" d="M239.634 143.54C239.186 145.232 234.81 149.346 234.81 149.346C234.81 149.346 233.039 143.611 233.488 141.913C233.703 141.098 234.234 140.402 234.963 139.978C235.692 139.555 236.559 139.438 237.374 139.653C238.19 139.869 238.886 140.4 239.309 141.129C239.733 141.858 239.85 142.725 239.634 143.54Z" fill="#009E8E"/>
<path opacity="0.5" d="M244.58 159.404C243.337 160.642 237.486 161.981 237.486 161.981C237.486 161.981 238.851 156.136 240.097 154.898C240.393 154.604 240.744 154.37 241.131 154.212C241.517 154.053 241.931 153.972 242.348 153.974C242.766 153.975 243.179 154.058 243.565 154.219C243.95 154.38 244.3 154.616 244.594 154.912C244.889 155.208 245.122 155.56 245.28 155.946C245.439 156.332 245.52 156.746 245.519 157.164C245.517 157.581 245.434 157.995 245.273 158.38C245.112 158.765 244.876 159.115 244.58 159.409V159.404Z" fill="#009E8E"/>
<path opacity="0.5" d="M245.62 172.253C244.603 173.683 239.051 175.986 239.051 175.986C239.051 175.986 239.409 169.994 240.427 168.565C240.668 168.225 240.975 167.935 241.329 167.713C241.682 167.491 242.076 167.341 242.488 167.272C242.899 167.202 243.32 167.214 243.727 167.307C244.134 167.401 244.519 167.573 244.859 167.815C245.199 168.057 245.489 168.363 245.711 168.717C245.932 169.07 246.083 169.464 246.152 169.876C246.222 170.287 246.21 170.709 246.117 171.116C246.023 171.522 245.851 171.907 245.609 172.247L245.62 172.253Z" fill="#009E8E"/>
<path opacity="0.5" d="M228.573 151.737C230.149 152.51 236.118 151.889 236.118 151.889C236.118 151.889 232.941 146.797 231.364 146.027C230.607 145.657 229.734 145.603 228.937 145.877C228.14 146.15 227.484 146.729 227.114 147.486C226.744 148.244 226.689 149.117 226.963 149.914C227.237 150.711 227.816 151.367 228.573 151.737Z" fill="#009E8E"/>
<path opacity="0.5" d="M229.98 166.752C231.717 167.017 237.226 164.64 237.226 164.64C237.226 164.64 232.67 160.732 230.936 160.478C230.102 160.351 229.253 160.561 228.574 161.061C227.895 161.56 227.442 162.309 227.315 163.143C227.189 163.976 227.398 164.826 227.898 165.505C228.397 166.184 229.146 166.636 229.98 166.763V166.752Z" fill="#009E8E"/>
<path opacity="0.5" d="M233.346 181.152C235.013 181.716 240.847 180.306 240.847 180.306C240.847 180.306 237.018 175.684 235.351 175.129C234.551 174.863 233.678 174.926 232.924 175.304C232.171 175.682 231.598 176.343 231.332 177.144C231.066 177.944 231.129 178.817 231.507 179.571C231.885 180.324 232.546 180.897 233.346 181.163V181.152Z" fill="#009E8E"/>
<path opacity="0.5" d="M231.618 135.93C232.162 137.599 230.724 143.425 230.724 143.425C230.724 143.425 226.12 139.573 225.576 137.907C225.314 137.105 225.381 136.233 225.763 135.481C226.144 134.73 226.809 134.16 227.61 133.899C228.411 133.637 229.284 133.704 230.035 134.086C230.787 134.467 231.356 135.132 231.618 135.933V135.93Z" fill="white"/>
<path opacity="0.5" d="M239.634 143.54C239.186 145.232 234.81 149.346 234.81 149.346C234.81 149.346 233.039 143.611 233.488 141.913C233.703 141.098 234.234 140.402 234.963 139.978C235.692 139.555 236.559 139.438 237.374 139.653C238.19 139.869 238.886 140.4 239.309 141.129C239.733 141.858 239.85 142.725 239.634 143.54Z" fill="white"/>
<path opacity="0.5" d="M244.58 159.404C243.337 160.642 237.486 161.981 237.486 161.981C237.486 161.981 238.851 156.136 240.097 154.898C240.393 154.604 240.744 154.37 241.131 154.212C241.517 154.053 241.931 153.972 242.348 153.974C242.766 153.975 243.179 154.058 243.565 154.219C243.95 154.38 244.3 154.616 244.594 154.912C244.889 155.208 245.122 155.56 245.28 155.946C245.439 156.332 245.52 156.746 245.519 157.164C245.517 157.581 245.434 157.995 245.273 158.38C245.112 158.765 244.876 159.115 244.58 159.409V159.404Z" fill="white"/>
<path opacity="0.5" d="M245.62 172.253C244.603 173.683 239.051 175.986 239.051 175.986C239.051 175.986 239.409 169.994 240.427 168.565C240.668 168.225 240.975 167.935 241.329 167.713C241.682 167.491 242.076 167.341 242.488 167.272C242.899 167.202 243.32 167.214 243.727 167.307C244.134 167.401 244.519 167.573 244.859 167.815C245.199 168.057 245.489 168.363 245.711 168.717C245.932 169.07 246.083 169.464 246.152 169.876C246.222 170.287 246.21 170.709 246.117 171.116C246.023 171.522 245.851 171.907 245.609 172.247L245.62 172.253Z" fill="white"/>
<path opacity="0.5" d="M228.573 151.737C230.149 152.51 236.118 151.889 236.118 151.889C236.118 151.889 232.941 146.797 231.364 146.027C230.607 145.657 229.734 145.603 228.937 145.877C228.14 146.15 227.484 146.729 227.114 147.486C226.744 148.244 226.689 149.117 226.963 149.914C227.237 150.711 227.816 151.367 228.573 151.737Z" fill="white"/>
<path opacity="0.5" d="M229.98 166.752C231.717 167.017 237.226 164.64 237.226 164.64C237.226 164.64 232.67 160.732 230.936 160.478C230.102 160.351 229.253 160.561 228.574 161.061C227.895 161.56 227.442 162.309 227.315 163.143C227.189 163.976 227.398 164.826 227.898 165.505C228.397 166.184 229.146 166.636 229.98 166.763V166.752Z" fill="white"/>
<path opacity="0.5" d="M233.346 181.152C235.013 181.716 240.847 180.306 240.847 180.306C240.847 180.306 237.018 175.684 235.351 175.129C234.551 174.863 233.678 174.926 232.924 175.304C232.171 175.682 231.598 176.343 231.332 177.144C231.066 177.944 231.129 178.817 231.507 179.571C231.885 180.324 232.546 180.897 233.346 181.163V181.152Z" fill="white"/>
<path opacity="0.5" d="M228.703 220.246H252.763L258.78 183.554H222.688L228.703 220.246Z" fill="#474059"/>
<path opacity="0.1" d="M227.293 183.554L232.912 217.841H253.157L252.763 220.246H228.703L222.688 183.554H227.293Z" fill="black"/>
</g>
<path d="M233.265 11.0784H56.7542V224.047H233.265V11.0784Z" fill="url(#paint0_linear)"/>
<path d="M231.009 13.8022H59.0098V221.329H231.009V13.8022Z" fill="white"/>
<path d="M195.199 37.2054H125.836V40.589H195.199V37.2054Z" fill="#C0BCCF"/>
<path d="M195.199 47.9201H125.836V51.3037H195.199V47.9201Z" fill="#C0BCCF"/>
<path d="M178.563 58.6348H142.472V62.0184H178.563V58.6348Z" fill="#1672EC"/>
<path opacity="0.5" d="M195.199 105.159H125.836V108.543H195.199V105.159Z" fill="#C0BCCF"/>
<path opacity="0.5" d="M195.199 115.874H125.836V119.257H195.199V115.874Z" fill="#C0BCCF"/>
<path opacity="0.5" d="M178.563 126.589H142.472V129.972H178.563V126.589Z" fill="#6C63FF"/>
<path opacity="0.5" d="M195.199 173.113H125.836V176.497H195.199V173.113Z" fill="#C0BCCF"/>
<path opacity="0.5" d="M195.199 183.828H125.836V187.211H195.199V183.828Z" fill="#C0BCCF"/>
<path opacity="0.5" d="M178.563 194.542H142.472V197.926H178.563V194.542Z" fill="#1672EC"/>
<g opacity="0.5">
<path opacity="0.5" d="M101.415 124.031L99.9597 123.377C99.9819 123.156 99.9913 122.934 99.9879 122.712C99.9981 122.524 99.9981 122.335 99.9879 122.148C99.8441 120.664 98.8995 119.373 98.2313 118.017C97.6194 116.779 97.2309 115.442 97.0837 114.069C96.906 112.378 97.0837 110.624 96.4633 109.033C95.9586 107.75 94.9605 106.679 93.8918 105.732C92.6923 104.606 91.2907 103.717 89.761 103.112C88.1989 102.548 86.4028 102.404 84.8407 102.98C83.4309 103.498 82.3453 104.533 81.2964 105.54C80.5347 106.211 79.862 106.976 79.2944 107.818C78.6544 108.867 78.3809 110.074 78.1666 111.264C77.8299 113.169 77.5983 115.091 77.4729 117.021C77.363 118.632 77.191 120.459 75.815 121.446C75.1439 121.928 74.1993 122.198 73.892 122.929C73.8049 123.148 73.7701 123.384 73.7905 123.619C73.782 123.815 73.7962 124.011 73.8328 124.203C73.8525 124.316 73.8751 124.426 73.9033 124.539C73.5083 125.52 73.1768 126.526 72.9107 127.55C72.7049 128.311 72.516 129.059 72.3468 129.783H72.8036H73.0461L75.674 129.845H75.7107L78.5303 129.91H78.5444L81.1723 129.972H81.2372L81.9957 130.026H82.2438L92.7527 130.268H92.8091L93.5083 130.285H93.7537L95.8571 130.333L98.9587 130.404H98.9813L101.316 130.46H101.564H102.043L101.919 128.013C102.433 124.265 101.415 124.031 101.415 124.031ZM89.6088 123.732C89.6088 125.808 87.3869 128.348 87.3869 128.348L85.1509 125.303L85.2326 125.184L87.3869 128.117C87.3869 128.117 89.6088 125.579 89.6088 123.501C89.6605 123.395 89.7199 123.294 89.7864 123.197L89.8371 123.354C89.7518 123.475 89.6755 123.601 89.6088 123.732ZM93.0262 131.875C93.0262 131.771 93.0262 131.664 93.0064 131.56C92.9867 131.455 92.9895 131.362 92.9754 131.261C92.9613 131.159 92.95 131.061 92.9359 130.959C92.9218 130.858 92.9021 130.759 92.8824 130.657C92.8626 130.556 92.8429 130.457 92.8203 130.356C92.8203 130.322 92.8062 130.291 92.7978 130.254C92.7668 130.122 92.7329 129.989 92.6963 129.857C92.6596 129.724 92.6371 129.642 92.6032 129.538C92.6032 129.49 92.575 129.442 92.5581 129.397C92.5412 129.352 92.5102 129.245 92.4848 129.169L92.434 129.022C92.4115 128.957 92.3889 128.889 92.3636 128.825C92.3213 128.706 92.2761 128.591 92.231 128.472C92.1859 128.354 92.138 128.238 92.09 128.122C91.9942 127.886 91.8899 127.652 91.7855 127.415C91.3767 126.501 90.9171 125.602 90.4941 124.711C90.2673 124.244 90.0659 123.766 89.8907 123.278L89.8371 123.349C89.7517 123.47 89.6754 123.597 89.6088 123.729C89.6088 125.805 87.3869 128.345 87.3869 128.345L85.1509 125.3L83.194 128.12C82.9121 128.261 82.6301 128.74 82.4102 129.422C82.3481 129.606 82.2889 129.809 82.2325 130.02C82.193 130.164 82.1564 130.302 82.1226 130.463C82.1028 130.539 82.0859 130.615 82.069 130.694L82.0182 130.934V130.97C81.9844 131.134 81.9506 131.303 81.9195 131.475C81.8885 131.647 81.8519 131.844 81.8209 132.039C81.7983 132.161 81.7786 132.282 81.7616 132.403C81.7222 132.637 81.6883 132.874 81.6545 133.11C81.6348 133.249 81.615 133.392 81.5981 133.519L81.5304 134.044C81.6742 134.475 81.835 134.89 82.0013 135.324C82.1071 135.552 82.1693 135.798 82.1846 136.049C85.6533 136.973 89.3037 136.973 92.7724 136.049C92.7713 136.04 92.7713 136.032 92.7724 136.023C92.7204 135.787 92.6977 135.546 92.7047 135.304C92.7617 134.627 92.8558 133.953 92.9867 133.285C93.0284 132.956 93.0463 132.624 93.0403 132.293V132.174C93.0318 132.067 93.029 131.971 93.0262 131.878V131.875ZM93.0262 131.875C93.0262 131.771 93.0262 131.664 93.0064 131.56C92.9867 131.455 92.9895 131.362 92.9754 131.261C92.9613 131.159 92.95 131.061 92.9359 130.959C92.9218 130.858 92.9021 130.759 92.8824 130.657C92.8626 130.556 92.8429 130.457 92.8203 130.356C92.8203 130.322 92.8062 130.291 92.7978 130.254C92.7668 130.122 92.7329 129.989 92.6963 129.857C92.6596 129.724 92.6371 129.642 92.6032 129.538C92.6032 129.49 92.575 129.442 92.5581 129.397C92.5412 129.352 92.5102 129.245 92.4848 129.169L92.434 129.022C92.4115 128.957 92.3889 128.889 92.3636 128.825C92.3213 128.706 92.2761 128.591 92.231 128.472C92.1859 128.354 92.138 128.238 92.09 128.122C91.9942 127.886 91.8899 127.652 91.7855 127.415C91.3767 126.501 90.9171 125.602 90.4941 124.711C90.2673 124.244 90.0659 123.766 89.8907 123.278L89.8371 123.349C89.7517 123.47 89.6754 123.597 89.6088 123.729C89.6088 125.805 87.3869 128.345 87.3869 128.345L85.1509 125.3L83.194 128.12C82.9121 128.261 82.6301 128.74 82.4102 129.422C82.3481 129.606 82.2889 129.809 82.2325 130.02C82.193 130.164 82.1564 130.302 82.1226 130.463C82.1028 130.539 82.0859 130.615 82.069 130.694L82.0182 130.934V130.97C81.9844 131.134 81.9506 131.303 81.9195 131.475C81.8885 131.647 81.8519 131.844 81.8209 132.039C81.7983 132.161 81.7786 132.282 81.7616 132.403C81.7222 132.637 81.6883 132.874 81.6545 133.11C81.6348 133.249 81.615 133.392 81.5981 133.519L81.5304 134.044C81.6742 134.475 81.835 134.89 82.0013 135.324C82.1071 135.552 82.1693 135.798 82.1846 136.049C85.6533 136.973 89.3037 136.973 92.7724 136.049C92.7713 136.04 92.7713 136.032 92.7724 136.023C92.7204 135.787 92.6977 135.546 92.7047 135.304C92.7617 134.627 92.8558 133.953 92.9867 133.285C93.0284 132.956 93.0463 132.624 93.0403 132.293V132.174C93.0318 132.067 93.029 131.971 93.0262 131.878V131.875ZM93.0262 131.875C93.0262 131.771 93.0262 131.664 93.0064 131.56C92.9867 131.455 92.9895 131.362 92.9754 131.261C92.9613 131.159 92.95 131.061 92.9359 130.959C92.9218 130.858 92.9021 130.759 92.8824 130.657C92.8626 130.556 92.8429 130.457 92.8203 130.356C92.8203 130.322 92.8062 130.291 92.7978 130.254C92.7668 130.122 92.7329 129.989 92.6963 129.857C92.6596 129.724 92.6371 129.642 92.6032 129.538C92.6032 129.49 92.575 129.442 92.5581 129.397C92.5412 129.352 92.5102 129.245 92.4848 129.169L92.434 129.022C92.4115 128.957 92.3889 128.889 92.3636 128.825C92.3213 128.706 92.2761 128.591 92.231 128.472C92.1859 128.354 92.138 128.238 92.09 128.122C91.9942 127.886 91.8899 127.652 91.7855 127.415C91.3767 126.501 90.9171 125.602 90.4941 124.711C90.2673 124.244 90.0659 123.766 89.8907 123.278L89.8371 123.349C89.7517 123.47 89.6754 123.597 89.6088 123.729C89.6088 125.805 87.3869 128.345 87.3869 128.345L85.1509 125.3L83.194 128.12C82.9121 128.261 82.6301 128.74 82.4102 129.422C82.3481 129.606 82.2889 129.809 82.2325 130.02C82.193 130.164 82.1564 130.302 82.1226 130.463C82.1028 130.539 82.0859 130.615 82.069 130.694L82.0182 130.934V130.97C81.9844 131.134 81.9506 131.303 81.9195 131.475C81.8885 131.647 81.8519 131.844 81.8209 132.039C81.7983 132.161 81.7786 132.282 81.7616 132.403C81.7222 132.637 81.6883 132.874 81.6545 133.11C81.6348 133.249 81.615 133.392 81.5981 133.519L81.5304 134.044C81.6742 134.475 81.835 134.89 82.0013 135.324C82.1071 135.552 82.1693 135.798 82.1846 136.049C85.6533 136.973 89.3037 136.973 92.7724 136.049C92.7713 136.04 92.7713 136.032 92.7724 136.023C92.7204 135.787 92.6977 135.546 92.7047 135.304C92.7617 134.627 92.8558 133.953 92.9867 133.285C93.0284 132.956 93.0463 132.624 93.0403 132.293V132.174C93.0318 132.067 93.029 131.971 93.0262 131.878V131.875ZM93.0262 131.875C93.0262 131.771 93.0262 131.664 93.0064 131.56C92.9867 131.455 92.9895 131.362 92.9754 131.261C92.9613 131.159 92.95 131.061 92.9359 130.959C92.9218 130.858 92.9021 130.759 92.8824 130.657C92.8626 130.556 92.8429 130.457 92.8203 130.356C92.8203 130.322 92.8062 130.291 92.7978 130.254C92.7668 130.122 92.7329 129.989 92.6963 129.857C92.6596 129.724 92.6371 129.642 92.6032 129.538C92.6032 129.49 92.575 129.442 92.5581 129.397C92.5412 129.352 92.5102 129.245 92.4848 129.169L92.434 129.022C92.4115 128.957 92.3889 128.889 92.3636 128.825C92.3213 128.706 92.2761 128.591 92.231 128.472C92.1859 128.354 92.138 128.238 92.09 128.122C91.9942 127.886 91.8899 127.652 91.7855 127.415C91.3767 126.501 90.9171 125.602 90.4941 124.711C90.2673 124.244 90.0659 123.766 89.8907 123.278L89.8371 123.349C89.7517 123.47 89.6754 123.597 89.6088 123.729C89.6088 125.805 87.3869 128.345 87.3869 128.345L85.1509 125.3L83.194 128.12C82.9121 128.261 82.6301 128.74 82.4102 129.422C82.3481 129.606 82.2889 129.809 82.2325 130.02C82.193 130.164 82.1564 130.302 82.1226 130.463C82.1028 130.539 82.0859 130.615 82.069 130.694L82.0182 130.934V130.97C81.9844 131.134 81.9506 131.303 81.9195 131.475C81.8885 131.647 81.8519 131.844 81.8209 132.039C81.7983 132.161 81.7786 132.282 81.7616 132.403C81.7222 132.637 81.6883 132.874 81.6545 133.11C81.6348 133.249 81.615 133.392 81.5981 133.519L81.5304 134.044C81.6742 134.475 81.835 134.89 82.0013 135.324C82.1071 135.552 82.1693 135.798 82.1846 136.049C85.6533 136.973 89.3037 136.973 92.7724 136.049C92.7713 136.04 92.7713 136.032 92.7724 136.023C92.7204 135.787 92.6977 135.546 92.7047 135.304C92.7617 134.627 92.8558 133.953 92.9867 133.285C93.0284 132.956 93.0463 132.624 93.0403 132.293V132.174C93.0318 132.067 93.029 131.971 93.0262 131.878V131.875Z" fill="url(#paint1_linear)"/>
<path opacity="0.5" d="M93.1277 112.208H80.1572V120.949H93.1277V112.208Z" fill="#005CB2"/>
<path opacity="0.5" d="M95.2819 121.849L89.854 129.496L84.1809 129.002C84.1809 129.002 76.7793 129.493 81.7137 123.823C84.085 121.096 84.8604 118.823 85.0268 117.202C85.2072 115.448 84.6743 114.45 84.6743 114.45L90.8409 113.711C90.5626 114.542 90.5274 115.435 90.7394 116.286C91.512 119.489 95.2819 121.849 95.2819 121.849Z" fill="#C77485"/>
<path opacity="0.1" d="M90.7366 116.277C89.9323 116.886 88.9909 117.288 87.9948 117.449C86.9988 117.609 85.9787 117.522 85.024 117.196C85.2044 115.442 84.6715 114.444 84.6715 114.444L90.8381 113.706C90.5604 114.536 90.5252 115.428 90.7366 116.277Z" fill="black"/>
<path opacity="0.5" d="M87.0174 117.281C90.4231 117.281 93.184 114.52 93.184 111.114C93.184 107.709 90.4231 104.948 87.0174 104.948C83.6117 104.948 80.8508 107.709 80.8508 111.114C80.8508 114.52 83.6117 117.281 87.0174 117.281Z" fill="#C77485"/>
<path opacity="0.1" d="M95.0563 122.165L94.9125 121.601L94.7884 121.104L94.6051 120.371L94.5713 120.236L94.5431 120.123C94.5431 120.123 94.6897 119.68 93.7226 119.824L93.5421 119.855C93.3899 119.886 93.2122 119.929 93.0092 119.985L92.8259 120.041L92.5834 120.117C91.8157 120.367 91.1155 120.79 90.5364 121.353C90.2764 121.601 90.0464 121.879 89.8512 122.181C89.8314 122.21 89.8173 122.235 89.8004 122.258C89.7337 122.362 89.6743 122.472 89.6228 122.585C89.6228 124.807 87.4009 127.519 87.4009 127.519L85.2326 124.386L85.1903 124.324L84.6743 123.574L84.491 123.332L84.429 123.247L83.3011 121.733L83.0192 121.355L82.9261 121.228L82.7879 121.045L82.4637 120.614L81.1948 121.355L79.503 122.342L78.5162 128.757V128.935L78.5472 129.465L78.753 132.95V132.998L78.3921 134.441L78.4457 134.47C79.2973 134.929 80.1835 135.321 81.0961 135.643L81.3358 135.727C81.6178 135.82 81.8828 135.905 82.1591 135.987C82.1694 136.028 82.1769 136.071 82.1817 136.113C82.1817 136.074 82.1817 136.032 82.1817 135.992C85.6417 136.981 89.3095 136.981 92.7695 135.992L92.8344 135.972C92.9951 135.927 93.1586 135.879 93.3165 135.826L93.5731 135.744C94.2689 135.511 94.9505 135.238 95.6146 134.926L95.8514 129.879L96.0206 126.239V126.03L95.0563 122.165Z" fill="black"/>
<path opacity="0.5" d="M93.0262 131.54C93.0262 131.427 93.0262 131.314 93.0065 131.202C92.9867 131.089 92.9896 130.99 92.9755 130.883C92.9614 130.776 92.9501 130.669 92.936 130.561C92.9219 130.454 92.9022 130.347 92.8824 130.24C92.8627 130.133 92.8429 130.026 92.8204 129.919C92.8204 129.882 92.8063 129.848 92.7978 129.811C92.7668 129.67 92.733 129.53 92.6963 129.386C92.6597 129.242 92.6371 129.157 92.6033 129.045C92.6033 128.994 92.5751 128.943 92.5582 128.895C92.5412 128.847 92.5102 128.732 92.4848 128.65L92.4341 128.492C92.4115 128.421 92.389 128.351 92.3636 128.28C92.3213 128.154 92.2762 128.029 92.2311 127.903C92.186 127.776 92.138 127.652 92.0901 127.528C91.9942 127.274 91.8899 127.023 91.7856 126.772C91.3767 125.796 90.9171 124.835 90.4942 123.882C90.2669 123.382 90.0655 122.871 89.8908 122.351L89.8372 122.427C89.7515 122.556 89.6751 122.692 89.6088 122.833C89.6088 125.052 87.3869 127.767 87.3869 127.767L85.1509 124.511L83.1941 127.519C82.9121 127.669 82.6301 128.182 82.4102 128.912C82.3482 129.109 82.289 129.324 82.2326 129.552C82.1931 129.704 82.1564 129.865 82.1226 130.026C82.1029 130.108 82.0859 130.189 82.069 130.274L82.0183 130.53V130.57C81.9844 130.745 81.9506 130.925 81.9196 131.109C81.8886 131.292 81.8519 131.503 81.8209 131.703C81.7983 131.833 81.7786 131.963 81.7617 132.093C81.7222 132.344 81.6884 132.597 81.6545 132.848C81.6348 132.995 81.6151 133.13 81.5981 133.285L81.5305 133.849C81.6743 134.312 81.835 134.768 82.0014 135.217C82.1076 135.462 82.1697 135.725 82.1846 135.992C85.6447 136.981 89.3124 136.981 92.7725 135.992C92.7712 135.983 92.7712 135.973 92.7725 135.964C92.7203 135.711 92.6976 135.453 92.7048 135.194C92.7617 134.471 92.8558 133.751 92.9867 133.037C93.0284 132.685 93.0463 132.331 93.0403 131.977V131.85C93.0319 131.743 93.029 131.641 93.0262 131.54ZM93.0262 131.54C93.0262 131.427 93.0262 131.314 93.0065 131.202C92.9867 131.089 92.9896 130.99 92.9755 130.883C92.9614 130.776 92.9501 130.669 92.936 130.561C92.9219 130.454 92.9022 130.347 92.8824 130.24C92.8627 130.133 92.8429 130.026 92.8204 129.919C92.8204 129.882 92.8063 129.848 92.7978 129.811C92.7668 129.67 92.733 129.53 92.6963 129.386C92.6597 129.242 92.6371 129.157 92.6033 129.045C92.6033 128.994 92.5751 128.943 92.5582 128.895C92.5412 128.847 92.5102 128.732 92.4848 128.65L92.4341 128.492C92.4115 128.421 92.389 128.351 92.3636 128.28C92.3213 128.154 92.2762 128.029 92.2311 127.903C92.186 127.776 92.138 127.652 92.0901 127.528C91.9942 127.274 91.8899 127.023 91.7856 126.772C91.3767 125.796 90.9171 124.835 90.4942 123.882C90.2669 123.382 90.0655 122.871 89.8908 122.351L89.8372 122.427C89.7515 122.556 89.6751 122.692 89.6088 122.833C89.6088 125.052 87.3869 127.767 87.3869 127.767L85.1509 124.511L83.1941 127.519C82.9121 127.669 82.6301 128.182 82.4102 128.912C82.3482 129.109 82.289 129.324 82.2326 129.552C82.1931 129.704 82.1564 129.865 82.1226 130.026C82.1029 130.108 82.0859 130.189 82.069 130.274L82.0183 130.53V130.57C81.9844 130.745 81.9506 130.925 81.9196 131.109C81.8886 131.292 81.8519 131.503 81.8209 131.703C81.7983 131.833 81.7786 131.963 81.7617 132.093C81.7222 132.344 81.6884 132.597 81.6545 132.848C81.6348 132.995 81.6151 133.13 81.5981 133.285L81.5305 133.849C81.6743 134.312 81.835 134.768 82.0014 135.217C82.1076 135.462 82.1697 135.725 82.1846 135.992C85.6447 136.981 89.3124 136.981 92.7725 135.992C92.7712 135.983 92.7712 135.973 92.7725 135.964C92.7203 135.711 92.6976 135.453 92.7048 135.194C92.7617 134.471 92.8558 133.751 92.9867 133.037C93.0284 132.685 93.0463 132.331 93.0403 131.977V131.85C93.0319 131.743 93.029 131.641 93.0262 131.54ZM93.0262 131.54C93.0262 131.427 93.0262 131.314 93.0065 131.202C92.9867 131.089 92.9896 130.99 92.9755 130.883C92.9614 130.776 92.9501 130.669 92.936 130.561C92.9219 130.454 92.9022 130.347 92.8824 130.24C92.8627 130.133 92.8429 130.026 92.8204 129.919C92.8204 129.882 92.8063 129.848 92.7978 129.811C92.7668 129.67 92.733 129.53 92.6963 129.386C92.6597 129.242 92.6371 129.157 92.6033 129.045C92.6033 128.994 92.5751 128.943 92.5582 128.895C92.5412 128.847 92.5102 128.732 92.4848 128.65L92.4341 128.492C92.4115 128.421 92.389 128.351 92.3636 128.28C92.3213 128.154 92.2762 128.029 92.2311 127.903C92.186 127.776 92.138 127.652 92.0901 127.528C91.9942 127.274 91.8899 127.023 91.7856 126.772C91.3767 125.796 90.9171 124.835 90.4942 123.882C90.2669 123.382 90.0655 122.871 89.8908 122.351L89.8372 122.427C89.7515 122.556 89.6751 122.692 89.6088 122.833C89.6088 125.052 87.3869 127.767 87.3869 127.767L85.1509 124.511L83.1941 127.519C82.9121 127.669 82.6301 128.182 82.4102 128.912C82.3482 129.109 82.289 129.324 82.2326 129.552C82.1931 129.704 82.1564 129.865 82.1226 130.026C82.1029 130.108 82.0859 130.189 82.069 130.274L82.0183 130.53V130.57C81.9844 130.745 81.9506 130.925 81.9196 131.109C81.8886 131.292 81.8519 131.503 81.8209 131.703C81.7983 131.833 81.7786 131.963 81.7617 132.093C81.7222 132.344 81.6884 132.597 81.6545 132.848C81.6348 132.995 81.6151 133.13 81.5981 133.285L81.5305 133.849C81.6743 134.312 81.835 134.768 82.0014 135.217C82.1076 135.462 82.1697 135.725 82.1846 135.992C85.6447 136.981 89.3124 136.981 92.7725 135.992C92.7712 135.983 92.7712 135.973 92.7725 135.964C92.7203 135.711 92.6976 135.453 92.7048 135.194C92.7617 134.471 92.8558 133.751 92.9867 133.037C93.0284 132.685 93.0463 132.331 93.0403 131.977V131.85C93.0319 131.743 93.029 131.641 93.0262 131.54ZM96.0151 126.247L95.0084 122.229L94.8364 121.541L94.7885 121.352L94.5432 120.371C94.5438 120.363 94.5438 120.354 94.5432 120.346C94.549 120.303 94.5422 120.258 94.5235 120.219C94.4868 120.146 94.3938 120.07 94.1766 120.05C94.094 120.044 94.0111 120.044 93.9285 120.05C93.6835 120.074 93.4411 120.119 93.2039 120.185C93.0883 120.216 92.9642 120.25 92.8317 120.292L92.5892 120.368H92.5666C91.9172 120.582 91.3143 120.916 90.7902 121.355C90.444 121.644 90.1403 121.98 89.8879 122.353L89.8344 122.43C89.7486 122.559 89.6723 122.695 89.606 122.836C89.606 125.055 87.3841 127.77 87.3841 127.77L85.1481 124.513L85.0212 124.33L84.9986 124.299L84.6744 123.823L84.4291 123.495L84.3642 123.411L83.2082 121.868L82.8416 121.369V121.352L82.7147 121.18L82.4722 120.859L81.6263 121.352L79.5116 122.585L78.536 128.932V128.999L78.5642 129.462L78.7728 132.995V133.195L78.4542 134.467C79.3058 134.926 80.192 135.318 81.1047 135.64L81.3444 135.724C81.6263 135.817 81.8914 135.902 82.1677 135.984C82.178 136.025 82.1855 136.068 82.1903 136.111C82.1903 136.071 82.1903 136.029 82.1903 135.989C85.6503 136.978 89.3181 136.978 92.7781 135.989L92.8429 135.97C93.0037 135.924 93.1672 135.877 93.3251 135.823L93.5817 135.741C94.2775 135.509 94.9591 135.235 95.6231 134.924L95.8572 129.882L96.0263 126.281L96.0151 126.247ZM82.148 135.984C82.1582 136.025 82.1658 136.068 82.1705 136.111C82.1705 136.071 82.1705 136.029 82.1705 135.989L82.148 135.984ZM93.0262 131.54C93.0262 131.427 93.0262 131.314 93.0065 131.202C92.9867 131.089 92.9896 130.99 92.9755 130.883C92.9614 130.776 92.9501 130.669 92.936 130.561C92.9219 130.454 92.9022 130.347 92.8824 130.24C92.8627 130.133 92.8429 130.026 92.8204 129.919C92.8204 129.882 92.8063 129.848 92.7978 129.811C92.7668 129.67 92.733 129.53 92.6963 129.386C92.6597 129.242 92.6371 129.157 92.6033 129.045C92.6033 128.994 92.5751 128.943 92.5582 128.895C92.5412 128.847 92.5102 128.732 92.4848 128.65L92.4341 128.492C92.4115 128.421 92.389 128.351 92.3636 128.28C92.3213 128.154 92.2762 128.029 92.2311 127.903C92.186 127.776 92.138 127.652 92.0901 127.528C91.9942 127.274 91.8899 127.023 91.7856 126.772C91.3767 125.796 90.9171 124.835 90.4942 123.882C90.2669 123.382 90.0655 122.871 89.8908 122.351L89.8372 122.427C89.7515 122.556 89.6751 122.692 89.6088 122.833C89.6088 125.052 87.3869 127.767 87.3869 127.767L85.1509 124.511L83.1941 127.519C82.9121 127.669 82.6301 128.182 82.4102 128.912C82.3482 129.109 82.289 129.324 82.2326 129.552C82.1931 129.704 82.1564 129.865 82.1226 130.026C82.1029 130.108 82.0859 130.189 82.069 130.274L82.0183 130.53V130.57C81.9844 130.745 81.9506 130.925 81.9196 131.109C81.8886 131.292 81.8519 131.503 81.8209 131.703C81.7983 131.833 81.7786 131.963 81.7617 132.093C81.7222 132.344 81.6884 132.597 81.6545 132.848C81.6348 132.995 81.6151 133.13 81.5981 133.285L81.5305 133.849C81.6743 134.312 81.835 134.768 82.0014 135.217C82.1076 135.462 82.1697 135.725 82.1846 135.992C85.6447 136.981 89.3124 136.981 92.7725 135.992C92.7712 135.983 92.7712 135.973 92.7725 135.964C92.7203 135.711 92.6976 135.453 92.7048 135.194C92.7617 134.471 92.8558 133.751 92.9867 133.037C93.0284 132.685 93.0463 132.331 93.0403 131.977V131.85C93.0319 131.743 93.029 131.641 93.0262 131.54ZM93.0262 131.54C93.0262 131.427 93.0262 131.314 93.0065 131.202C92.9867 131.089 92.9896 130.99 92.9755 130.883C92.9614 130.776 92.9501 130.669 92.936 130.561C92.9219 130.454 92.9022 130.347 92.8824 130.24C92.8627 130.133 92.8429 130.026 92.8204 129.919C92.8204 129.882 92.8063 129.848 92.7978 129.811C92.7668 129.67 92.733 129.53 92.6963 129.386C92.6597 129.242 92.6371 129.157 92.6033 129.045C92.6033 128.994 92.5751 128.943 92.5582 128.895C92.5412 128.847 92.5102 128.732 92.4848 128.65L92.4341 128.492C92.4115 128.421 92.389 128.351 92.3636 128.28C92.3213 128.154 92.2762 128.029 92.2311 127.903C92.186 127.776 92.138 127.652 92.0901 127.528C91.9942 127.274 91.8899 127.023 91.7856 126.772C91.3767 125.796 90.9171 124.835 90.4942 123.882C90.2669 123.382 90.0655 122.871 89.8908 122.351L89.8372 122.427C89.7515 122.556 89.6751 122.692 89.6088 122.833C89.6088 125.052 87.3869 127.767 87.3869 127.767L85.1509 124.511L83.1941 127.519C82.9121 127.669 82.6301 128.182 82.4102 128.912C82.3482 129.109 82.289 129.324 82.2326 129.552C82.1931 129.704 82.1564 129.865 82.1226 130.026C82.1029 130.108 82.0859 130.189 82.069 130.274L82.0183 130.53V130.57C81.9844 130.745 81.9506 130.925 81.9196 131.109C81.8886 131.292 81.8519 131.503 81.8209 131.703C81.7983 131.833 81.7786 131.963 81.7617 132.093C81.7222 132.344 81.6884 132.597 81.6545 132.848C81.6348 132.995 81.6151 133.13 81.5981 133.285L81.5305 133.849C81.6743 134.312 81.835 134.768 82.0014 135.217C82.1076 135.462 82.1697 135.725 82.1846 135.992C85.6447 136.981 89.3124 136.981 92.7725 135.992C92.7712 135.983 92.7712 135.973 92.7725 135.964C92.7203 135.711 92.6976 135.453 92.7048 135.194C92.7617 134.471 92.8558 133.751 92.9867 133.037C93.0284 132.685 93.0463 132.331 93.0403 131.977V131.85C93.0319 131.743 93.029 131.641 93.0262 131.54ZM93.0262 131.54C93.0262 131.427 93.0262 131.314 93.0065 131.202C92.9867 131.089 92.9896 130.99 92.9755 130.883C92.9614 130.776 92.9501 130.669 92.936 130.561C92.9219 130.454 92.9022 130.347 92.8824 130.24C92.8627 130.133 92.8429 130.026 92.8204 129.919C92.8204 129.882 92.8063 129.848 92.7978 129.811C92.7668 129.67 92.733 129.53 92.6963 129.386C92.6597 129.242 92.6371 129.157 92.6033 129.045C92.6033 128.994 92.5751 128.943 92.5582 128.895C92.5412 128.847 92.5102 128.732 92.4848 128.65L92.4341 128.492C92.4115 128.421 92.389 128.351 92.3636 128.28C92.3213 128.154 92.2762 128.029 92.2311 127.903C92.186 127.776 92.138 127.652 92.0901 127.528C91.9942 127.274 91.8899 127.023 91.7856 126.772C91.3767 125.796 90.9171 124.835 90.4942 123.882C90.2669 123.382 90.0655 122.871 89.8908 122.351L89.8372 122.427C89.7515 122.556 89.6751 122.692 89.6088 122.833C89.6088 125.052 87.3869 127.767 87.3869 127.767L85.1509 124.511L83.1941 127.519C82.9121 127.669 82.6301 128.182 82.4102 128.912C82.3482 129.109 82.289 129.324 82.2326 129.552C82.1931 129.704 82.1564 129.865 82.1226 130.026C82.1029 130.108 82.0859 130.189 82.069 130.274L82.0183 130.53V130.57C81.9844 130.745 81.9506 130.925 81.9196 131.109C81.8886 131.292 81.8519 131.503 81.8209 131.703C81.7983 131.833 81.7786 131.963 81.7617 132.093C81.7222 132.344 81.6884 132.597 81.6545 132.848C81.6348 132.995 81.6151 133.13 81.5981 133.285L81.5305 133.849C81.6743 134.312 81.835 134.768 82.0014 135.217C82.1076 135.462 82.1697 135.725 82.1846 135.992C85.6447 136.981 89.3124 136.981 92.7725 135.992C92.7712 135.983 92.7712 135.973 92.7725 135.964C92.7203 135.711 92.6976 135.453 92.7048 135.194C92.7617 134.471 92.8558 133.751 92.9867 133.037C93.0284 132.685 93.0463 132.331 93.0403 131.977V131.85C93.0319 131.743 93.029 131.641 93.0262 131.54ZM93.0262 131.54C93.0262 131.427 93.0262 131.314 93.0065 131.202C92.9867 131.089 92.9896 130.99 92.9755 130.883C92.9614 130.776 92.9501 130.669 92.936 130.561C92.9219 130.454 92.9022 130.347 92.8824 130.24C92.8627 130.133 92.8429 130.026 92.8204 129.919C92.8204 129.882 92.8063 129.848 92.7978 129.811C92.7668 129.67 92.733 129.53 92.6963 129.386C92.6597 129.242 92.6371 129.157 92.6033 129.045C92.6033 128.994 92.5751 128.943 92.5582 128.895C92.5412 128.847 92.5102 128.732 92.4848 128.65L92.4341 128.492C92.4115 128.421 92.389 128.351 92.3636 128.28C92.3213 128.154 92.2762 128.029 92.2311 127.903C92.186 127.776 92.138 127.652 92.0901 127.528C91.9942 127.274 91.8899 127.023 91.7856 126.772C91.3767 125.796 90.9171 124.835 90.4942 123.882C90.2669 123.382 90.0655 122.871 89.8908 122.351L89.8372 122.427C89.7515 122.556 89.6751 122.692 89.6088 122.833C89.6088 125.052 87.3869 127.767 87.3869 127.767L85.1509 124.511L83.1941 127.519C82.9121 127.669 82.6301 128.182 82.4102 128.912C82.3482 129.109 82.289 129.324 82.2326 129.552C82.1931 129.704 82.1564 129.865 82.1226 130.026C82.1029 130.108 82.0859 130.189 82.069 130.274L82.0183 130.53V130.57C81.9844 130.745 81.9506 130.925 81.9196 131.109C81.8886 131.292 81.8519 131.503 81.8209 131.703C81.7983 131.833 81.7786 131.963 81.7617 132.093C81.7222 132.344 81.6884 132.597 81.6545 132.848C81.6348 132.995 81.6151 133.13 81.5981 133.285L81.5305 133.849C81.6743 134.312 81.835 134.768 82.0014 135.217C82.1076 135.462 82.1697 135.725 82.1846 135.992C85.6447 136.981 89.3124 136.981 92.7725 135.992C92.7712 135.983 92.7712 135.973 92.7725 135.964C92.7203 135.711 92.6976 135.453 92.7048 135.194C92.7617 134.471 92.8558 133.751 92.9867 133.037C93.0284 132.685 93.0463 132.331 93.0403 131.977V131.85C93.0319 131.743 93.029 131.641 93.0262 131.54ZM93.0262 131.54C93.0262 131.427 93.0262 131.314 93.0065 131.202C92.9867 131.089 92.9896 130.99 92.9755 130.883C92.9614 130.776 92.9501 130.669 92.936 130.561C92.9219 130.454 92.9022 130.347 92.8824 130.24C92.8627 130.133 92.8429 130.026 92.8204 129.919C92.8204 129.882 92.8063 129.848 92.7978 129.811C92.7668 129.67 92.733 129.53 92.6963 129.386C92.6597 129.242 92.6371 129.157 92.6033 129.045C92.6033 128.994 92.5751 128.943 92.5582 128.895C92.5412 128.847 92.5102 128.732 92.4848 128.65L92.4341 128.492C92.4115 128.421 92.389 128.351 92.3636 128.28C92.3213 128.154 92.2762 128.029 92.2311 127.903C92.186 127.776 92.138 127.652 92.0901 127.528C91.9942 127.274 91.8899 127.023 91.7856 126.772C91.3767 125.796 90.9171 124.835 90.4942 123.882C90.2669 123.382 90.0655 122.871 89.8908 122.351L89.8372 122.427C89.7515 122.556 89.6751 122.692 89.6088 122.833C89.6088 125.052 87.3869 127.767 87.3869 127.767L85.1509 124.511L83.1941 127.519C82.9121 127.669 82.6301 128.182 82.4102 128.912C82.3482 129.109 82.289 129.324 82.2326 129.552C82.1931 129.704 82.1564 129.865 82.1226 130.026C82.1029 130.108 82.0859 130.189 82.069 130.274L82.0183 130.53V130.57C81.9844 130.745 81.9506 130.925 81.9196 131.109C81.8886 131.292 81.8519 131.503 81.8209 131.703C81.7983 131.833 81.7786 131.963 81.7617 132.093C81.7222 132.344 81.6884 132.597 81.6545 132.848C81.6348 132.995 81.6151 133.13 81.5981 133.285L81.5305 133.849C81.6743 134.312 81.835 134.768 82.0014 135.217C82.1076 135.462 82.1697 135.725 82.1846 135.992C85.6447 136.981 89.3124 136.981 92.7725 135.992C92.7712 135.983 92.7712 135.973 92.7725 135.964C92.7203 135.711 92.6976 135.453 92.7048 135.194C92.7617 134.471 92.8558 133.751 92.9867 133.037C93.0284 132.685 93.0463 132.331 93.0403 131.977V131.85C93.0319 131.743 93.029 131.641 93.0262 131.54ZM93.0262 131.54C93.0262 131.427 93.0262 131.314 93.0065 131.202C92.9867 131.089 92.9896 130.99 92.9755 130.883C92.9614 130.776 92.9501 130.669 92.936 130.561C92.9219 130.454 92.9022 130.347 92.8824 130.24C92.8627 130.133 92.8429 130.026 92.8204 129.919C92.8204 129.882 92.8063 129.848 92.7978 129.811C92.7668 129.67 92.733 129.53 92.6963 129.386C92.6597 129.242 92.6371 129.157 92.6033 129.045C92.6033 128.994 92.5751 128.943 92.5582 128.895C92.5412 128.847 92.5102 128.732 92.4848 128.65L92.4341 128.492C92.4115 128.421 92.389 128.351 92.3636 128.28C92.3213 128.154 92.2762 128.029 92.2311 127.903C92.186 127.776 92.138 127.652 92.0901 127.528C91.9942 127.274 91.8899 127.023 91.7856 126.772C91.3767 125.796 90.9171 124.835 90.4942 123.882C90.2669 123.382 90.0655 122.871 89.8908 122.351L89.8372 122.427C89.7515 122.556 89.6751 122.692 89.6088 122.833C89.6088 125.052 87.3869 127.767 87.3869 127.767L85.1509 124.511L83.1941 127.519C82.9121 127.669 82.6301 128.182 82.4102 128.912C82.3482 129.109 82.289 129.324 82.2326 129.552C82.1931 129.704 82.1564 129.865 82.1226 130.026C82.1029 130.108 82.0859 130.189 82.069 130.274L82.0183 130.53V130.57C81.9844 130.745 81.9506 130.925 81.9196 131.109C81.8886 131.292 81.8519 131.503 81.8209 131.703C81.7983 131.833 81.7786 131.963 81.7617 132.093C81.7222 132.344 81.6884 132.597 81.6545 132.848C81.6348 132.995 81.6151 133.13 81.5981 133.285L81.5305 133.849C81.6743 134.312 81.835 134.768 82.0014 135.217C82.1076 135.462 82.1697 135.725 82.1846 135.992C85.6447 136.981 89.3124 136.981 92.7725 135.992C92.7712 135.983 92.7712 135.973 92.7725 135.964C92.7203 135.711 92.6976 135.453 92.7048 135.194C92.7617 134.471 92.8558 133.751 92.9867 133.037C93.0284 132.685 93.0463 132.331 93.0403 131.977V131.85C93.0319 131.743 93.029 131.641 93.0262 131.54ZM93.0262 131.54C93.0262 131.427 93.0262 131.314 93.0065 131.202C92.9867 131.089 92.9896 130.99 92.9755 130.883C92.9614 130.776 92.9501 130.669 92.936 130.561C92.9219 130.454 92.9022 130.347 92.8824 130.24C92.8627 130.133 92.8429 130.026 92.8204 129.919C92.8204 129.882 92.8063 129.848 92.7978 129.811C92.7668 129.67 92.733 129.53 92.6963 129.386C92.6597 129.242 92.6371 129.157 92.6033 129.045C92.6033 128.994 92.5751 128.943 92.5582 128.895C92.5412 128.847 92.5102 128.732 92.4848 128.65L92.4341 128.492C92.4115 128.421 92.389 128.351 92.3636 128.28C92.3213 128.154 92.2762 128.029 92.2311 127.903C92.186 127.776 92.138 127.652 92.0901 127.528C91.9942 127.274 91.8899 127.023 91.7856 126.772C91.3767 125.796 90.9171 124.835 90.4942 123.882C90.2669 123.382 90.0655 122.871 89.8908 122.351L89.8372 122.427C89.7515 122.556 89.6751 122.692 89.6088 122.833C89.6088 125.052 87.3869 127.767 87.3869 127.767L85.1509 124.511L83.1941 127.519C82.9121 127.669 82.6301 128.182 82.4102 128.912C82.3482 129.109 82.289 129.324 82.2326 129.552C82.1931 129.704 82.1564 129.865 82.1226 130.026C82.1029 130.108 82.0859 130.189 82.069 130.274L82.0183 130.53V130.57C81.9844 130.745 81.9506 130.925 81.9196 131.109C81.8886 131.292 81.8519 131.503 81.8209 131.703C81.7983 131.833 81.7786 131.963 81.7617 132.093C81.7222 132.344 81.6884 132.597 81.6545 132.848C81.6348 132.995 81.6151 133.13 81.5981 133.285L81.5305 133.849C81.6743 134.312 81.835 134.768 82.0014 135.217C82.1076 135.462 82.1697 135.725 82.1846 135.992C85.6447 136.981 89.3124 136.981 92.7725 135.992C92.7712 135.983 92.7712 135.973 92.7725 135.964C92.7203 135.711 92.6976 135.453 92.7048 135.194C92.7617 134.471 92.8558 133.751 92.9867 133.037C93.0284 132.685 93.0463 132.331 93.0403 131.977V131.85C93.0319 131.743 93.029 131.641 93.0262 131.54ZM93.0262 131.54C93.0262 131.427 93.0262 131.314 93.0065 131.202C92.9867 131.089 92.9896 130.99 92.9755 130.883C92.9614 130.776 92.9501 130.669 92.936 130.561C92.9219 130.454 92.9022 130.347 92.8824 130.24C92.8627 130.133 92.8429 130.026 92.8204 129.919C92.8204 129.882 92.8063 129.848 92.7978 129.811C92.7668 129.67 92.733 129.53 92.6963 129.386C92.6597 129.242 92.6371 129.157 92.6033 129.045C92.6033 128.994 92.5751 128.943 92.5582 128.895C92.5412 128.847 92.5102 128.732 92.4848 128.65L92.4341 128.492C92.4115 128.421 92.389 128.351 92.3636 128.28C92.3213 128.154 92.2762 128.029 92.2311 127.903C92.186 127.776 92.138 127.652 92.0901 127.528C91.9942 127.274 91.8899 127.023 91.7856 126.772C91.3767 125.796 90.9171 124.835 90.4942 123.882C90.2669 123.382 90.0655 122.871 89.8908 122.351L89.8372 122.427C89.7515 122.556 89.6751 122.692 89.6088 122.833C89.6088 125.052 87.3869 127.767 87.3869 127.767L85.1509 124.511L83.1941 127.519C82.9121 127.669 82.6301 128.182 82.4102 128.912C82.3482 129.109 82.289 129.324 82.2326 129.552C82.1931 129.704 82.1564 129.865 82.1226 130.026C82.1029 130.108 82.0859 130.189 82.069 130.274L82.0183 130.53V130.57C81.9844 130.745 81.9506 130.925 81.9196 131.109C81.8886 131.292 81.8519 131.503 81.8209 131.703C81.7983 131.833 81.7786 131.963 81.7617 132.093C81.7222 132.344 81.6884 132.597 81.6545 132.848C81.6348 132.995 81.6151 133.13 81.5981 133.285L81.5305 133.849C81.6743 134.312 81.835 134.768 82.0014 135.217C82.1076 135.462 82.1697 135.725 82.1846 135.992C85.6447 136.981 89.3124 136.981 92.7725 135.992C92.7712 135.983 92.7712 135.973 92.7725 135.964C92.7203 135.711 92.6976 135.453 92.7048 135.194C92.7617 134.471 92.8558 133.751 92.9867 133.037C93.0284 132.685 93.0463 132.331 93.0403 131.977V131.85C93.0319 131.743 93.029 131.641 93.0262 131.54Z" fill="white"/>
<path opacity="0.1" d="M85.1903 124.322L85.0014 124.296C84.7162 124.258 84.4337 124.201 84.1555 124.127L84.0512 124.099C83.3632 123.904 82.6103 123.555 82.4412 122.94C82.3908 122.742 82.3967 122.534 82.4581 122.339C82.5527 122.004 82.6812 121.679 82.8416 121.369V121.352C82.8628 121.309 82.8863 121.267 82.912 121.226C83.1447 120.771 83.4965 120.388 83.9299 120.117L83.5916 120.171L80.7268 120.636L76.2858 121.352C76.2858 121.352 75.4963 121.195 74.4221 124.155C74.4221 124.192 74.3967 124.226 74.3854 124.265C74.126 124.99 73.8525 125.895 73.5705 127.026C73.376 127.81 73.1983 128.579 73.0348 129.326C72.9868 129.552 72.9389 129.775 72.8938 129.995C73.4022 130.594 73.9494 131.159 74.532 131.687L74.6251 131.774C75.7662 132.807 77.0271 133.7 78.3809 134.433L78.4344 134.461C79.2861 134.92 80.1722 135.313 81.0849 135.634L81.3246 135.719C81.3753 135.197 81.4317 134.619 81.4994 134.027C81.4994 133.968 81.4994 133.908 81.522 133.849L81.5896 133.285C81.6065 133.141 81.6263 133.003 81.646 132.848C81.6799 132.597 81.7137 132.344 81.7532 132.093C81.7701 131.963 81.7898 131.833 81.8124 131.703C81.8434 131.503 81.8772 131.303 81.9111 131.109C81.9449 130.914 81.9759 130.745 82.0098 130.57V130.53L82.0605 130.274C82.0774 130.189 82.0943 130.108 82.1141 130.026C82.1479 129.865 82.1846 129.704 82.224 129.552C82.2804 129.324 82.3397 129.109 82.4017 128.912C82.6273 128.182 82.8895 127.669 83.1856 127.519L85.1424 124.511L85.2242 124.384L85.2608 124.327L85.1903 124.322Z" fill="black"/>
<path opacity="0.1" d="M81.6291 104.35C81.3471 104.739 81.3697 105.275 81.2428 105.76C80.9411 106.862 79.7455 107.553 79.472 108.664C79.3113 109.313 79.4974 110.001 79.3875 110.66C79.1873 111.876 78.0763 112.699 77.456 113.762C77.1415 114.31 76.9551 114.921 76.9106 115.551C76.8662 116.181 76.9649 116.813 77.1994 117.399C77.3445 117.695 77.4643 118.003 77.5575 118.319C77.6286 118.789 77.5988 119.27 77.4701 119.728C77.2586 120.732 77.0415 121.837 77.5265 122.743C77.9353 123.507 78.7841 123.955 79.6384 124.096C80.5011 124.194 81.3738 124.154 82.224 123.978C83.1573 123.834 84.1132 123.667 84.9253 123.188L81.8716 115.817C81.5642 115.073 81.2484 114.303 81.2512 113.497C81.2761 112.902 81.4049 112.316 81.6319 111.766C82.2231 110.171 83.0812 108.688 84.1696 107.381C84.6123 107.894 84.5784 108.675 84.9478 109.245C85.2742 109.666 85.7089 109.991 86.2054 110.184C87.6523 110.89 89.1388 111.511 90.6576 112.045C90.7529 112.057 90.8438 112.092 90.9222 112.148C91.0006 112.203 91.064 112.277 91.107 112.363C91.1499 112.449 91.171 112.544 91.1684 112.64C91.1658 112.736 91.1395 112.83 91.0919 112.913L89.9414 117.662C89.6877 118.708 89.4649 119.917 90.1163 120.763C90.7676 121.609 92.2366 122.009 92.2451 123.101C92.2331 123.273 92.2331 123.447 92.2451 123.619C92.3212 124.13 92.9275 124.375 93.4435 124.401C94.2905 124.417 95.116 124.132 95.7724 123.597C96.4289 123.061 96.8736 122.31 97.0272 121.477C97.3092 119.61 96.0742 117.89 95.5582 116.071C94.6897 113.012 95.8402 109.423 94.1343 106.735C92.7526 104.556 90.2347 103.964 87.8436 103.693C86.1659 103.496 82.8105 102.791 81.6291 104.35Z" fill="black"/>
<path opacity="0.5" d="M81.6291 104.068C81.3471 104.457 81.3697 104.993 81.2428 105.478C80.9411 106.58 79.7455 107.271 79.472 108.382C79.3113 109.031 79.4974 109.719 79.3875 110.378C79.1873 111.594 78.0763 112.417 77.456 113.48C77.1415 114.028 76.9551 114.639 76.9106 115.269C76.8662 115.899 76.9649 116.531 77.1994 117.117C77.3445 117.413 77.4643 117.721 77.5575 118.037C77.6286 118.507 77.5988 118.988 77.4701 119.446C77.2586 120.45 77.0415 121.556 77.5265 122.461C77.9353 123.225 78.7841 123.673 79.6384 123.814C80.5011 123.912 81.3738 123.872 82.224 123.696C83.1573 123.552 84.1132 123.385 84.9253 122.906L81.8716 115.536C81.5642 114.791 81.2484 114.021 81.2512 113.215C81.2761 112.62 81.4049 112.034 81.6319 111.484C82.2231 109.889 83.0812 108.406 84.1696 107.099C84.6123 107.612 84.5784 108.393 84.9478 108.963C85.2742 109.384 85.7089 109.709 86.2054 109.902C87.6523 110.608 89.1388 111.229 90.6576 111.763C90.7529 111.775 90.8438 111.81 90.9222 111.866C91.0006 111.921 91.064 111.995 91.107 112.081C91.1499 112.167 91.171 112.262 91.1684 112.358C91.1658 112.454 91.1395 112.548 91.0919 112.631L89.9414 117.38C89.6877 118.426 89.4649 119.635 90.1163 120.481C90.7676 121.327 92.2366 121.728 92.2451 122.819C92.2331 122.991 92.2331 123.165 92.2451 123.338C92.3212 123.848 92.9275 124.093 93.4435 124.119C94.2905 124.135 95.116 123.85 95.7724 123.315C96.4289 122.779 96.8736 122.028 97.0272 121.195C97.3092 119.328 96.0742 117.608 95.5582 115.789C94.6897 112.73 95.8402 109.141 94.1343 106.453C92.7526 104.274 90.2347 103.682 87.8436 103.411C86.1659 103.214 82.8105 102.509 81.6291 104.068Z" fill="#005CB2"/>
</g>
<g opacity="0.5">
<path opacity="0.5" d="M79.895 179.593C79.9204 180.537 79.2775 181.344 78.7671 182.13C78.2568 182.917 77.879 183.991 78.4034 184.778C78.5754 185.037 78.8348 185.237 78.9899 185.508C79.5341 186.453 78.629 187.538 78.2991 188.576C77.9184 189.774 78.3611 191.114 79.1619 192.086C79.9627 193.059 81.068 193.716 82.1846 194.294C84.5323 195.545 87.0521 196.442 89.6623 196.956C91.027 197.207 92.482 197.32 93.7621 196.773C94.6503 196.365 95.3758 195.671 95.8222 194.802C96.2686 193.933 96.41 192.939 96.2236 191.979C95.8994 190.496 94.8138 189.303 94.2499 187.902C94.1182 187.627 94.0544 187.324 94.0638 187.02C94.1117 186.487 94.5206 186.069 94.8392 185.638C95.6382 184.463 95.9645 183.03 95.7528 181.625C95.5302 180.221 94.9922 178.885 94.1794 177.717C93.8889 177.234 93.5056 176.812 93.0515 176.477C92.4368 176.062 91.6755 175.944 90.9424 175.84C87.8803 175.411 84.7082 174.943 81.6206 174.785C80.645 174.734 79.9288 174.926 79.4467 175.84C78.7107 177.201 79.8583 178.225 79.895 179.593Z" fill="#444176"/>
<path opacity="0.5" d="M95.6654 189.182L89.854 197.447L84.1809 196.953C84.1809 196.953 83.9948 198.927 81.7137 191.773C80.4392 187.772 83.0305 189.162 83.5408 188.054C84.0512 186.946 84.9507 185.968 85.0268 185.15C85.2072 183.396 84.6743 182.398 84.6743 182.398L90.8409 181.659C90.5627 182.49 90.5274 183.383 90.7394 184.234C91.512 187.442 95.6654 189.182 95.6654 189.182Z" fill="#C77485"/>
<path opacity="0.5" d="M86.9245 182.136C90.9734 182.136 94.2556 179.548 94.2556 176.356C94.2556 173.163 90.9734 170.575 86.9245 170.575C82.8756 170.575 79.5934 173.163 79.5934 176.356C79.5934 179.548 82.8756 182.136 86.9245 182.136Z" fill="#444176"/>
<path opacity="0.1" d="M90.7366 184.231C89.9323 184.84 88.9909 185.242 87.9948 185.402C86.9988 185.563 85.9787 185.476 85.024 185.15C85.2044 183.396 84.6715 182.398 84.6715 182.398L90.8381 181.659C90.5604 182.489 90.5252 183.381 90.7366 184.231Z" fill="black"/>
<path opacity="0.5" d="M87.0174 185.235C90.4231 185.235 93.184 182.474 93.184 179.068C93.184 175.662 90.4231 172.901 87.0174 172.901C83.6117 172.901 80.8508 175.662 80.8508 179.068C80.8508 182.474 83.6117 185.235 87.0174 185.235Z" fill="#C77485"/>
<path opacity="0.1" d="M95.0563 190.118L94.9125 189.554L94.7884 189.058L94.6051 188.325L94.5713 188.19L94.5431 188.077C94.5431 188.077 94.6897 187.634 93.7226 187.778L93.5421 187.809C93.3899 187.84 93.2122 187.882 93.0092 187.939L92.8259 187.995L92.5834 188.071C91.8157 188.321 91.1155 188.744 90.5364 189.306C90.2764 189.555 90.0464 189.833 89.8512 190.135C89.8314 190.163 89.8173 190.189 89.8004 190.211C89.7337 190.316 89.6743 190.425 89.6228 190.538C89.6228 192.76 87.4009 195.473 87.4009 195.473L85.2326 192.34L85.1903 192.278L84.6743 191.528L84.491 191.286L84.429 191.201L83.3011 189.687L83.0192 189.309L82.9261 189.182L82.7879 188.999L82.4637 188.567L81.1948 189.309L79.503 190.296L78.5162 196.711V196.888L78.5472 197.418L78.753 200.903V200.951L78.3921 202.395L78.4457 202.423C79.2973 202.883 80.1835 203.275 81.0961 203.596L81.3358 203.681C81.6178 203.774 81.8828 203.859 82.1591 203.94C82.1694 203.982 82.1769 204.024 82.1817 204.067C82.1817 204.028 82.1817 203.985 82.1817 203.946C85.6417 204.935 89.3095 204.935 92.7695 203.946L92.8344 203.926C92.9951 203.881 93.1586 203.833 93.3165 203.78L93.5731 203.698C94.2689 203.465 94.9505 203.192 95.6146 202.88L95.8514 197.833L96.0206 194.193V193.984L95.0563 190.118Z" fill="black"/>
<path opacity="0.5" d="M93.0262 199.494C93.0262 199.381 93.0262 199.268 93.0065 199.155C92.9867 199.043 92.9896 198.944 92.9755 198.837C92.9614 198.73 92.9501 198.622 92.936 198.515C92.9219 198.408 92.9022 198.301 92.8824 198.194C92.8627 198.087 92.8429 197.98 92.8204 197.872C92.8204 197.836 92.8063 197.802 92.7978 197.765C92.7668 197.624 92.733 197.483 92.6963 197.339C92.6597 197.196 92.6371 197.111 92.6033 196.998C92.6033 196.948 92.5751 196.897 92.5582 196.849C92.5412 196.801 92.5102 196.685 92.4848 196.604L92.4341 196.446C92.4115 196.375 92.389 196.305 92.3636 196.234C92.3213 196.107 92.2762 195.983 92.2311 195.856C92.186 195.729 92.138 195.605 92.0901 195.481C91.9942 195.228 91.8899 194.977 91.7856 194.726C91.3767 193.75 90.9171 192.789 90.4942 191.835C90.2669 191.336 90.0655 190.825 89.8908 190.304L89.8372 190.381C89.7515 190.51 89.6751 190.646 89.6088 190.787C89.6088 193.006 87.3869 195.721 87.3869 195.721L85.1509 192.464L83.1941 195.473C82.9121 195.622 82.6301 196.135 82.4102 196.866C82.3482 197.063 82.289 197.277 82.2326 197.506C82.1931 197.658 82.1564 197.819 82.1226 197.98C82.1029 198.061 82.0859 198.143 82.069 198.228L82.0183 198.484V198.524C81.9844 198.699 81.9506 198.879 81.9196 199.062C81.8886 199.246 81.8519 199.457 81.8209 199.657C81.7983 199.787 81.7786 199.917 81.7617 200.046C81.7222 200.297 81.6884 200.551 81.6545 200.802C81.6348 200.949 81.6151 201.084 81.5981 201.239L81.5305 201.803C81.6743 202.265 81.835 202.722 82.0014 203.171C82.1076 203.416 82.1697 203.679 82.1846 203.946C85.6447 204.935 89.3124 204.935 92.7725 203.946C92.7712 203.937 92.7712 203.927 92.7725 203.918C92.7203 203.665 92.6976 203.406 92.7048 203.148C92.7617 202.425 92.8558 201.705 92.9867 200.991C93.0284 200.639 93.0463 200.285 93.0403 199.931V199.804C93.0319 199.697 93.029 199.595 93.0262 199.494ZM93.0262 199.494C93.0262 199.381 93.0262 199.268 93.0065 199.155C92.9867 199.043 92.9896 198.944 92.9755 198.837C92.9614 198.73 92.9501 198.622 92.936 198.515C92.9219 198.408 92.9022 198.301 92.8824 198.194C92.8627 198.087 92.8429 197.98 92.8204 197.872C92.8204 197.836 92.8063 197.802 92.7978 197.765C92.7668 197.624 92.733 197.483 92.6963 197.339C92.6597 197.196 92.6371 197.111 92.6033 196.998C92.6033 196.948 92.5751 196.897 92.5582 196.849C92.5412 196.801 92.5102 196.685 92.4848 196.604L92.4341 196.446C92.4115 196.375 92.389 196.305 92.3636 196.234C92.3213 196.107 92.2762 195.983 92.2311 195.856C92.186 195.729 92.138 195.605 92.0901 195.481C91.9942 195.228 91.8899 194.977 91.7856 194.726C91.3767 193.75 90.9171 192.789 90.4942 191.835C90.2669 191.336 90.0655 190.825 89.8908 190.304L89.8372 190.381C89.7515 190.51 89.6751 190.646 89.6088 190.787C89.6088 193.006 87.3869 195.721 87.3869 195.721L85.1509 192.464L83.1941 195.473C82.9121 195.622 82.6301 196.135 82.4102 196.866C82.3482 197.063 82.289 197.277 82.2326 197.506C82.1931 197.658 82.1564 197.819 82.1226 197.98C82.1029 198.061 82.0859 198.143 82.069 198.228L82.0183 198.484V198.524C81.9844 198.699 81.9506 198.879 81.9196 199.062C81.8886 199.246 81.8519 199.457 81.8209 199.657C81.7983 199.787 81.7786 199.917 81.7617 200.046C81.7222 200.297 81.6884 200.551 81.6545 200.802C81.6348 200.949 81.6151 201.084 81.5981 201.239L81.5305 201.803C81.6743 202.265 81.835 202.722 82.0014 203.171C82.1076 203.416 82.1697 203.679 82.1846 203.946C85.6447 204.935 89.3124 204.935 92.7725 203.946C92.7712 203.937 92.7712 203.927 92.7725 203.918C92.7203 203.665 92.6976 203.406 92.7048 203.148C92.7617 202.425 92.8558 201.705 92.9867 200.991C93.0284 200.639 93.0463 200.285 93.0403 199.931V199.804C93.0319 199.697 93.029 199.595 93.0262 199.494ZM93.0262 199.494C93.0262 199.381 93.0262 199.268 93.0065 199.155C92.9867 199.043 92.9896 198.944 92.9755 198.837C92.9614 198.73 92.9501 198.622 92.936 198.515C92.9219 198.408 92.9022 198.301 92.8824 198.194C92.8627 198.087 92.8429 197.98 92.8204 197.872C92.8204 197.836 92.8063 197.802 92.7978 197.765C92.7668 197.624 92.733 197.483 92.6963 197.339C92.6597 197.196 92.6371 197.111 92.6033 196.998C92.6033 196.948 92.5751 196.897 92.5582 196.849C92.5412 196.801 92.5102 196.685 92.4848 196.604L92.4341 196.446C92.4115 196.375 92.389 196.305 92.3636 196.234C92.3213 196.107 92.2762 195.983 92.2311 195.856C92.186 195.729 92.138 195.605 92.0901 195.481C91.9942 195.228 91.8899 194.977 91.7856 194.726C91.3767 193.75 90.9171 192.789 90.4942 191.835C90.2669 191.336 90.0655 190.825 89.8908 190.304L89.8372 190.381C89.7515 190.51 89.6751 190.646 89.6088 190.787C89.6088 193.006 87.3869 195.721 87.3869 195.721L85.1509 192.464L83.1941 195.473C82.9121 195.622 82.6301 196.135 82.4102 196.866C82.3482 197.063 82.289 197.277 82.2326 197.506C82.1931 197.658 82.1564 197.819 82.1226 197.98C82.1029 198.061 82.0859 198.143 82.069 198.228L82.0183 198.484V198.524C81.9844 198.699 81.9506 198.879 81.9196 199.062C81.8886 199.246 81.8519 199.457 81.8209 199.657C81.7983 199.787 81.7786 199.917 81.7617 200.046C81.7222 200.297 81.6884 200.551 81.6545 200.802C81.6348 200.949 81.6151 201.084 81.5981 201.239L81.5305 201.803C81.6743 202.265 81.835 202.722 82.0014 203.171C82.1076 203.416 82.1697 203.679 82.1846 203.946C85.6447 204.935 89.3124 204.935 92.7725 203.946C92.7712 203.937 92.7712 203.927 92.7725 203.918C92.7203 203.665 92.6976 203.406 92.7048 203.148C92.7617 202.425 92.8558 201.705 92.9867 200.991C93.0284 200.639 93.0463 200.285 93.0403 199.931V199.804C93.0319 199.697 93.029 199.595 93.0262 199.494ZM96.0151 194.201L95.0084 190.183L94.8364 189.495L94.7885 189.306L94.5432 188.325C94.5438 188.317 94.5438 188.308 94.5432 188.3C94.549 188.256 94.5422 188.212 94.5235 188.173C94.4868 188.099 94.3938 188.023 94.1766 188.004C94.094 187.998 94.0111 187.998 93.9285 188.004C93.6835 188.028 93.4411 188.073 93.2039 188.139C93.0883 188.17 92.9642 188.204 92.8317 188.246L92.5892 188.322H92.5666C91.9172 188.535 91.3143 188.87 90.7902 189.309C90.444 189.598 90.1403 189.934 89.8879 190.307L89.8344 190.383C89.7486 190.513 89.6723 190.649 89.606 190.789C89.606 193.008 87.3841 195.724 87.3841 195.724L85.1481 192.467L85.0212 192.284L84.9986 192.253L84.6744 191.776L84.4291 191.449L84.3642 191.365L83.2082 189.822L82.8416 189.323V189.306L82.7147 189.134L82.4722 188.813L81.6263 189.306L79.5116 190.538L78.536 196.885V196.953L78.5642 197.416L78.7728 200.949V201.149L78.4542 202.42C79.3058 202.88 80.192 203.272 81.1047 203.593L81.3444 203.678C81.6263 203.771 81.8914 203.856 82.1677 203.937C82.178 203.979 82.1855 204.022 82.1903 204.064C82.1903 204.025 82.1903 203.983 82.1903 203.943C85.6503 204.932 89.3181 204.932 92.7781 203.943L92.8429 203.923C93.0037 203.878 93.1672 203.83 93.3251 203.777L93.5817 203.695C94.2775 203.462 94.9591 203.189 95.6231 202.877L95.8572 197.836L96.0263 194.235L96.0151 194.201ZM82.148 203.937C82.1582 203.979 82.1658 204.022 82.1705 204.064C82.1705 204.025 82.1705 203.983 82.1705 203.943L82.148 203.937ZM93.0262 199.494C93.0262 199.381 93.0262 199.268 93.0065 199.155C92.9867 199.043 92.9896 198.944 92.9755 198.837C92.9614 198.73 92.9501 198.622 92.936 198.515C92.9219 198.408 92.9022 198.301 92.8824 198.194C92.8627 198.087 92.8429 197.98 92.8204 197.872C92.8204 197.836 92.8063 197.802 92.7978 197.765C92.7668 197.624 92.733 197.483 92.6963 197.339C92.6597 197.196 92.6371 197.111 92.6033 196.998C92.6033 196.948 92.5751 196.897 92.5582 196.849C92.5412 196.801 92.5102 196.685 92.4848 196.604L92.4341 196.446C92.4115 196.375 92.389 196.305 92.3636 196.234C92.3213 196.107 92.2762 195.983 92.2311 195.856C92.186 195.729 92.138 195.605 92.0901 195.481C91.9942 195.228 91.8899 194.977 91.7856 194.726C91.3767 193.75 90.9171 192.789 90.4942 191.835C90.2669 191.336 90.0655 190.825 89.8908 190.304L89.8372 190.381C89.7515 190.51 89.6751 190.646 89.6088 190.787C89.6088 193.006 87.3869 195.721 87.3869 195.721L85.1509 192.464L83.1941 195.473C82.9121 195.622 82.6301 196.135 82.4102 196.866C82.3482 197.063 82.289 197.277 82.2326 197.506C82.1931 197.658 82.1564 197.819 82.1226 197.98C82.1029 198.061 82.0859 198.143 82.069 198.228L82.0183 198.484V198.524C81.9844 198.699 81.9506 198.879 81.9196 199.062C81.8886 199.246 81.8519 199.457 81.8209 199.657C81.7983 199.787 81.7786 199.917 81.7617 200.046C81.7222 200.297 81.6884 200.551 81.6545 200.802C81.6348 200.949 81.6151 201.084 81.5981 201.239L81.5305 201.803C81.6743 202.265 81.835 202.722 82.0014 203.171C82.1076 203.416 82.1697 203.679 82.1846 203.946C85.6447 204.935 89.3124 204.935 92.7725 203.946C92.7712 203.937 92.7712 203.927 92.7725 203.918C92.7203 203.665 92.6976 203.406 92.7048 203.148C92.7617 202.425 92.8558 201.705 92.9867 200.991C93.0284 200.639 93.0463 200.285 93.0403 199.931V199.804C93.0319 199.697 93.029 199.595 93.0262 199.494ZM93.0262 199.494C93.0262 199.381 93.0262 199.268 93.0065 199.155C92.9867 199.043 92.9896 198.944 92.9755 198.837C92.9614 198.73 92.9501 198.622 92.936 198.515C92.9219 198.408 92.9022 198.301 92.8824 198.194C92.8627 198.087 92.8429 197.98 92.8204 197.872C92.8204 197.836 92.8063 197.802 92.7978 197.765C92.7668 197.624 92.733 197.483 92.6963 197.339C92.6597 197.196 92.6371 197.111 92.6033 196.998C92.6033 196.948 92.5751 196.897 92.5582 196.849C92.5412 196.801 92.5102 196.685 92.4848 196.604L92.4341 196.446C92.4115 196.375 92.389 196.305 92.3636 196.234C92.3213 196.107 92.2762 195.983 92.2311 195.856C92.186 195.729 92.138 195.605 92.0901 195.481C91.9942 195.228 91.8899 194.977 91.7856 194.726C91.3767 193.75 90.9171 192.789 90.4942 191.835C90.2669 191.336 90.0655 190.825 89.8908 190.304L89.8372 190.381C89.7515 190.51 89.6751 190.646 89.6088 190.787C89.6088 193.006 87.3869 195.721 87.3869 195.721L85.1509 192.464L83.1941 195.473C82.9121 195.622 82.6301 196.135 82.4102 196.866C82.3482 197.063 82.289 197.277 82.2326 197.506C82.1931 197.658 82.1564 197.819 82.1226 197.98C82.1029 198.061 82.0859 198.143 82.069 198.228L82.0183 198.484V198.524C81.9844 198.699 81.9506 198.879 81.9196 199.062C81.8886 199.246 81.8519 199.457 81.8209 199.657C81.7983 199.787 81.7786 199.917 81.7617 200.046C81.7222 200.297 81.6884 200.551 81.6545 200.802C81.6348 200.949 81.6151 201.084 81.5981 201.239L81.5305 201.803C81.6743 202.265 81.835 202.722 82.0014 203.171C82.1076 203.416 82.1697 203.679 82.1846 203.946C85.6447 204.935 89.3124 204.935 92.7725 203.946C92.7712 203.937 92.7712 203.927 92.7725 203.918C92.7203 203.665 92.6976 203.406 92.7048 203.148C92.7617 202.425 92.8558 201.705 92.9867 200.991C93.0284 200.639 93.0463 200.285 93.0403 199.931V199.804C93.0319 199.697 93.029 199.595 93.0262 199.494ZM93.0262 199.494C93.0262 199.381 93.0262 199.268 93.0065 199.155C92.9867 199.043 92.9896 198.944 92.9755 198.837C92.9614 198.73 92.9501 198.622 92.936 198.515C92.9219 198.408 92.9022 198.301 92.8824 198.194C92.8627 198.087 92.8429 197.98 92.8204 197.872C92.8204 197.836 92.8063 197.802 92.7978 197.765C92.7668 197.624 92.733 197.483 92.6963 197.339C92.6597 197.196 92.6371 197.111 92.6033 196.998C92.6033 196.948 92.5751 196.897 92.5582 196.849C92.5412 196.801 92.5102 196.685 92.4848 196.604L92.4341 196.446C92.4115 196.375 92.389 196.305 92.3636 196.234C92.3213 196.107 92.2762 195.983 92.2311 195.856C92.186 195.729 92.138 195.605 92.0901 195.481C91.9942 195.228 91.8899 194.977 91.7856 194.726C91.3767 193.75 90.9171 192.789 90.4942 191.835C90.2669 191.336 90.0655 190.825 89.8908 190.304L89.8372 190.381C89.7515 190.51 89.6751 190.646 89.6088 190.787C89.6088 193.006 87.3869 195.721 87.3869 195.721L85.1509 192.464L83.1941 195.473C82.9121 195.622 82.6301 196.135 82.4102 196.866C82.3482 197.063 82.289 197.277 82.2326 197.506C82.1931 197.658 82.1564 197.819 82.1226 197.98C82.1029 198.061 82.0859 198.143 82.069 198.228L82.0183 198.484V198.524C81.9844 198.699 81.9506 198.879 81.9196 199.062C81.8886 199.246 81.8519 199.457 81.8209 199.657C81.7983 199.787 81.7786 199.917 81.7617 200.046C81.7222 200.297 81.6884 200.551 81.6545 200.802C81.6348 200.949 81.6151 201.084 81.5981 201.239L81.5305 201.803C81.6743 202.265 81.835 202.722 82.0014 203.171C82.1076 203.416 82.1697 203.679 82.1846 203.946C85.6447 204.935 89.3124 204.935 92.7725 203.946C92.7712 203.937 92.7712 203.927 92.7725 203.918C92.7203 203.665 92.6976 203.406 92.7048 203.148C92.7617 202.425 92.8558 201.705 92.9867 200.991C93.0284 200.639 93.0463 200.285 93.0403 199.931V199.804C93.0319 199.697 93.029 199.595 93.0262 199.494ZM93.0262 199.494C93.0262 199.381 93.0262 199.268 93.0065 199.155C92.9867 199.043 92.9896 198.944 92.9755 198.837C92.9614 198.73 92.9501 198.622 92.936 198.515C92.9219 198.408 92.9022 198.301 92.8824 198.194C92.8627 198.087 92.8429 197.98 92.8204 197.872C92.8204 197.836 92.8063 197.802 92.7978 197.765C92.7668 197.624 92.733 197.483 92.6963 197.339C92.6597 197.196 92.6371 197.111 92.6033 196.998C92.6033 196.948 92.5751 196.897 92.5582 196.849C92.5412 196.801 92.5102 196.685 92.4848 196.604L92.4341 196.446C92.4115 196.375 92.389 196.305 92.3636 196.234C92.3213 196.107 92.2762 195.983 92.2311 195.856C92.186 195.729 92.138 195.605 92.0901 195.481C91.9942 195.228 91.8899 194.977 91.7856 194.726C91.3767 193.75 90.9171 192.789 90.4942 191.835C90.2669 191.336 90.0655 190.825 89.8908 190.304L89.8372 190.381C89.7515 190.51 89.6751 190.646 89.6088 190.787C89.6088 193.006 87.3869 195.721 87.3869 195.721L85.1509 192.464L83.1941 195.473C82.9121 195.622 82.6301 196.135 82.4102 196.866C82.3482 197.063 82.289 197.277 82.2326 197.506C82.1931 197.658 82.1564 197.819 82.1226 197.98C82.1029 198.061 82.0859 198.143 82.069 198.228L82.0183 198.484V198.524C81.9844 198.699 81.9506 198.879 81.9196 199.062C81.8886 199.246 81.8519 199.457 81.8209 199.657C81.7983 199.787 81.7786 199.917 81.7617 200.046C81.7222 200.297 81.6884 200.551 81.6545 200.802C81.6348 200.949 81.6151 201.084 81.5981 201.239L81.5305 201.803C81.6743 202.265 81.835 202.722 82.0014 203.171C82.1076 203.416 82.1697 203.679 82.1846 203.946C85.6447 204.935 89.3124 204.935 92.7725 203.946C92.7712 203.937 92.7712 203.927 92.7725 203.918C92.7203 203.665 92.6976 203.406 92.7048 203.148C92.7617 202.425 92.8558 201.705 92.9867 200.991C93.0284 200.639 93.0463 200.285 93.0403 199.931V199.804C93.0319 199.697 93.029 199.595 93.0262 199.494ZM93.0262 199.494C93.0262 199.381 93.0262 199.268 93.0065 199.155C92.9867 199.043 92.9896 198.944 92.9755 198.837C92.9614 198.73 92.9501 198.622 92.936 198.515C92.9219 198.408 92.9022 198.301 92.8824 198.194C92.8627 198.087 92.8429 197.98 92.8204 197.872C92.8204 197.836 92.8063 197.802 92.7978 197.765C92.7668 197.624 92.733 197.483 92.6963 197.339C92.6597 197.196 92.6371 197.111 92.6033 196.998C92.6033 196.948 92.5751 196.897 92.5582 196.849C92.5412 196.801 92.5102 196.685 92.4848 196.604L92.4341 196.446C92.4115 196.375 92.389 196.305 92.3636 196.234C92.3213 196.107 92.2762 195.983 92.2311 195.856C92.186 195.729 92.138 195.605 92.0901 195.481C91.9942 195.228 91.8899 194.977 91.7856 194.726C91.3767 193.75 90.9171 192.789 90.4942 191.835C90.2669 191.336 90.0655 190.825 89.8908 190.304L89.8372 190.381C89.7515 190.51 89.6751 190.646 89.6088 190.787C89.6088 193.006 87.3869 195.721 87.3869 195.721L85.1509 192.464L83.1941 195.473C82.9121 195.622 82.6301 196.135 82.4102 196.866C82.3482 197.063 82.289 197.277 82.2326 197.506C82.1931 197.658 82.1564 197.819 82.1226 197.98C82.1029 198.061 82.0859 198.143 82.069 198.228L82.0183 198.484V198.524C81.9844 198.699 81.9506 198.879 81.9196 199.062C81.8886 199.246 81.8519 199.457 81.8209 199.657C81.7983 199.787 81.7786 199.917 81.7617 200.046C81.7222 200.297 81.6884 200.551 81.6545 200.802C81.6348 200.949 81.6151 201.084 81.5981 201.239L81.5305 201.803C81.6743 202.265 81.835 202.722 82.0014 203.171C82.1076 203.416 82.1697 203.679 82.1846 203.946C85.6447 204.935 89.3124 204.935 92.7725 203.946C92.7712 203.937 92.7712 203.927 92.7725 203.918C92.7203 203.665 92.6976 203.406 92.7048 203.148C92.7617 202.425 92.8558 201.705 92.9867 200.991C93.0284 200.639 93.0463 200.285 93.0403 199.931V199.804C93.0319 199.697 93.029 199.595 93.0262 199.494ZM93.0262 199.494C93.0262 199.381 93.0262 199.268 93.0065 199.155C92.9867 199.043 92.9896 198.944 92.9755 198.837C92.9614 198.73 92.9501 198.622 92.936 198.515C92.9219 198.408 92.9022 198.301 92.8824 198.194C92.8627 198.087 92.8429 197.98 92.8204 197.872C92.8204 197.836 92.8063 197.802 92.7978 197.765C92.7668 197.624 92.733 197.483 92.6963 197.339C92.6597 197.196 92.6371 197.111 92.6033 196.998C92.6033 196.948 92.5751 196.897 92.5582 196.849C92.5412 196.801 92.5102 196.685 92.4848 196.604L92.4341 196.446C92.4115 196.375 92.389 196.305 92.3636 196.234C92.3213 196.107 92.2762 195.983 92.2311 195.856C92.186 195.729 92.138 195.605 92.0901 195.481C91.9942 195.228 91.8899 194.977 91.7856 194.726C91.3767 193.75 90.9171 192.789 90.4942 191.835C90.2669 191.336 90.0655 190.825 89.8908 190.304L89.8372 190.381C89.7515 190.51 89.6751 190.646 89.6088 190.787C89.6088 193.006 87.3869 195.721 87.3869 195.721L85.1509 192.464L83.1941 195.473C82.9121 195.622 82.6301 196.135 82.4102 196.866C82.3482 197.063 82.289 197.277 82.2326 197.506C82.1931 197.658 82.1564 197.819 82.1226 197.98C82.1029 198.061 82.0859 198.143 82.069 198.228L82.0183 198.484V198.524C81.9844 198.699 81.9506 198.879 81.9196 199.062C81.8886 199.246 81.8519 199.457 81.8209 199.657C81.7983 199.787 81.7786 199.917 81.7617 200.046C81.7222 200.297 81.6884 200.551 81.6545 200.802C81.6348 200.949 81.6151 201.084 81.5981 201.239L81.5305 201.803C81.6743 202.265 81.835 202.722 82.0014 203.171C82.1076 203.416 82.1697 203.679 82.1846 203.946C85.6447 204.935 89.3124 204.935 92.7725 203.946C92.7712 203.937 92.7712 203.927 92.7725 203.918C92.7203 203.665 92.6976 203.406 92.7048 203.148C92.7617 202.425 92.8558 201.705 92.9867 200.991C93.0284 200.639 93.0463 200.285 93.0403 199.931V199.804C93.0319 199.697 93.029 199.595 93.0262 199.494ZM93.0262 199.494C93.0262 199.381 93.0262 199.268 93.0065 199.155C92.9867 199.043 92.9896 198.944 92.9755 198.837C92.9614 198.73 92.9501 198.622 92.936 198.515C92.9219 198.408 92.9022 198.301 92.8824 198.194C92.8627 198.087 92.8429 197.98 92.8204 197.872C92.8204 197.836 92.8063 197.802 92.7978 197.765C92.7668 197.624 92.733 197.483 92.6963 197.339C92.6597 197.196 92.6371 197.111 92.6033 196.998C92.6033 196.948 92.5751 196.897 92.5582 196.849C92.5412 196.801 92.5102 196.685 92.4848 196.604L92.4341 196.446C92.4115 196.375 92.389 196.305 92.3636 196.234C92.3213 196.107 92.2762 195.983 92.2311 195.856C92.186 195.729 92.138 195.605 92.0901 195.481C91.9942 195.228 91.8899 194.977 91.7856 194.726C91.3767 193.75 90.9171 192.789 90.4942 191.835C90.2669 191.336 90.0655 190.825 89.8908 190.304L89.8372 190.381C89.7515 190.51 89.6751 190.646 89.6088 190.787C89.6088 193.006 87.3869 195.721 87.3869 195.721L85.1509 192.464L83.1941 195.473C82.9121 195.622 82.6301 196.135 82.4102 196.866C82.3482 197.063 82.289 197.277 82.2326 197.506C82.1931 197.658 82.1564 197.819 82.1226 197.98C82.1029 198.061 82.0859 198.143 82.069 198.228L82.0183 198.484V198.524C81.9844 198.699 81.9506 198.879 81.9196 199.062C81.8886 199.246 81.8519 199.457 81.8209 199.657C81.7983 199.787 81.7786 199.917 81.7617 200.046C81.7222 200.297 81.6884 200.551 81.6545 200.802C81.6348 200.949 81.6151 201.084 81.5981 201.239L81.5305 201.803C81.6743 202.265 81.835 202.722 82.0014 203.171C82.1076 203.416 82.1697 203.679 82.1846 203.946C85.6447 204.935 89.3124 204.935 92.7725 203.946C92.7712 203.937 92.7712 203.927 92.7725 203.918C92.7203 203.665 92.6976 203.406 92.7048 203.148C92.7617 202.425 92.8558 201.705 92.9867 200.991C93.0284 200.639 93.0463 200.285 93.0403 199.931V199.804C93.0319 199.697 93.029 199.595 93.0262 199.494ZM93.0262 199.494C93.0262 199.381 93.0262 199.268 93.0065 199.155C92.9867 199.043 92.9896 198.944 92.9755 198.837C92.9614 198.73 92.9501 198.622 92.936 198.515C92.9219 198.408 92.9022 198.301 92.8824 198.194C92.8627 198.087 92.8429 197.98 92.8204 197.872C92.8204 197.836 92.8063 197.802 92.7978 197.765C92.7668 197.624 92.733 197.483 92.6963 197.339C92.6597 197.196 92.6371 197.111 92.6033 196.998C92.6033 196.948 92.5751 196.897 92.5582 196.849C92.5412 196.801 92.5102 196.685 92.4848 196.604L92.4341 196.446C92.4115 196.375 92.389 196.305 92.3636 196.234C92.3213 196.107 92.2762 195.983 92.2311 195.856C92.186 195.729 92.138 195.605 92.0901 195.481C91.9942 195.228 91.8899 194.977 91.7856 194.726C91.3767 193.75 90.9171 192.789 90.4942 191.835C90.2669 191.336 90.0655 190.825 89.8908 190.304L89.8372 190.381C89.7515 190.51 89.6751 190.646 89.6088 190.787C89.6088 193.006 87.3869 195.721 87.3869 195.721L85.1509 192.464L83.1941 195.473C82.9121 195.622 82.6301 196.135 82.4102 196.866C82.3482 197.063 82.289 197.277 82.2326 197.506C82.1931 197.658 82.1564 197.819 82.1226 197.98C82.1029 198.061 82.0859 198.143 82.069 198.228L82.0183 198.484V198.524C81.9844 198.699 81.9506 198.879 81.9196 199.062C81.8886 199.246 81.8519 199.457 81.8209 199.657C81.7983 199.787 81.7786 199.917 81.7617 200.046C81.7222 200.297 81.6884 200.551 81.6545 200.802C81.6348 200.949 81.6151 201.084 81.5981 201.239L81.5305 201.803C81.6743 202.265 81.835 202.722 82.0014 203.171C82.1076 203.416 82.1697 203.679 82.1846 203.946C85.6447 204.935 89.3124 204.935 92.7725 203.946C92.7712 203.937 92.7712 203.927 92.7725 203.918C92.7203 203.665 92.6976 203.406 92.7048 203.148C92.7617 202.425 92.8558 201.705 92.9867 200.991C93.0284 200.639 93.0463 200.285 93.0403 199.931V199.804C93.0319 199.697 93.029 199.595 93.0262 199.494Z" fill="#444176"/>
<path opacity="0.1" d="M85.1903 192.275L85.0014 192.25C84.7162 192.211 84.4337 192.155 84.1555 192.081L84.0512 192.053C83.3632 191.858 82.6103 191.508 82.4412 190.894C82.3908 190.696 82.3967 190.488 82.4581 190.293C82.5527 189.958 82.6812 189.633 82.8416 189.323V189.306C82.8628 189.263 82.8863 189.22 82.912 189.179C83.1447 188.725 83.4965 188.342 83.9299 188.071L83.5916 188.125L80.7268 188.59L76.2858 189.306C76.2858 189.306 75.4963 189.148 74.4221 192.109C74.4221 192.146 74.3967 192.179 74.3854 192.219C74.126 192.944 73.8525 193.849 73.5705 194.979C73.376 195.763 73.1983 196.533 73.0348 197.28C72.9868 197.506 72.9389 197.729 72.8938 197.949C73.4022 198.548 73.9494 199.113 74.532 199.64L74.6251 199.728C75.7662 200.761 77.0271 201.654 78.3809 202.387L78.4344 202.415C79.2861 202.874 80.1722 203.266 81.0849 203.588L81.3246 203.672C81.3753 203.151 81.4317 202.573 81.4994 201.981C81.4994 201.921 81.4994 201.862 81.522 201.803L81.5896 201.239C81.6065 201.095 81.6263 200.957 81.646 200.802C81.6799 200.551 81.7137 200.297 81.7532 200.046C81.7701 199.917 81.7898 199.787 81.8124 199.657C81.8434 199.457 81.8772 199.257 81.9111 199.062C81.9449 198.868 81.9759 198.699 82.0098 198.524V198.484L82.0605 198.228C82.0774 198.143 82.0943 198.061 82.1141 197.98C82.1479 197.819 82.1846 197.658 82.224 197.506C82.2804 197.277 82.3397 197.063 82.4017 196.866C82.6273 196.135 82.8895 195.622 83.1856 195.473L85.1424 192.464L85.2242 192.337L85.2608 192.281L85.1903 192.275Z" fill="black"/>
<path opacity="0.1" d="M85.6613 177.263C86.541 177.114 87.4264 176.793 88.3005 176.982C89.0336 177.134 89.6454 177.622 90.3165 177.96C90.9644 178.286 91.6731 178.473 92.3974 178.51C92.6616 178.544 92.9299 178.492 93.1616 178.36C93.5112 178.118 93.5619 177.622 93.5027 177.199C93.3336 175.997 92.5835 174.965 91.8109 174.029C91.5026 173.629 91.1466 173.269 90.7507 172.955C89.7385 172.208 88.3992 172.081 87.1444 172.137C85.712 172.202 84.2571 172.479 83.0136 173.198C82.1677 173.683 80.2278 175.211 80.9017 176.316C81.6094 177.472 84.5531 177.452 85.6613 177.263Z" fill="black"/>
<path opacity="0.5" d="M85.6613 176.982C86.541 176.832 87.4264 176.511 88.3005 176.7C89.0336 176.852 89.6454 177.34 90.3165 177.678C90.9644 178.004 91.6731 178.191 92.3974 178.228C92.6616 178.263 92.9299 178.21 93.1616 178.078C93.5112 177.836 93.5619 177.34 93.5027 176.917C93.3336 175.715 92.5835 174.683 91.8109 173.747C91.5026 173.347 91.1466 172.987 90.7507 172.673C89.7385 171.926 88.3992 171.799 87.1444 171.855C85.712 171.92 84.2571 172.197 83.0136 172.916C82.1677 173.401 80.2278 174.929 80.9017 176.034C81.6094 177.19 84.5531 177.17 85.6613 176.982Z" fill="#444176"/>
</g>
<path d="M163.092 163.174H163.134C163.196 165.063 163.464 166.772 163.98 167.245C165.209 168.373 170.307 166.117 169.958 164.753C169.887 164.471 169.769 164.008 169.619 163.425C170.995 163.253 172.171 162.861 172.639 162.054L173.525 164.784L173.587 164.978H173.604H173.654C174.238 170.51 175.56 181.998 176.618 183.537C178.028 185.576 179.649 194.41 179.649 194.41L182.68 212.532C182.68 212.532 183.847 222.964 184.547 224.092C184.75 224.308 185.02 224.448 185.314 224.49C184.905 225.714 184.318 227.143 183.622 227.941C182.212 229.526 180.357 232.698 178.724 232.472C177.091 232.247 176.626 235.645 179.657 236.096C181.335 236.347 184.011 236.042 186.066 235.721C186.066 236.629 186.698 237.672 188.285 237.909C191.317 238.363 197.613 237.004 197.613 237.004C197.613 237.004 202.97 234.748 203.21 233.152C203.379 231.996 202.559 227.355 202.102 224.921C202.948 223.565 202.045 211.861 202.045 211.861L200.413 189.436C200.413 189.436 201.346 176.979 200.413 174.712C199.829 173.302 199.612 166.817 199.53 162.178L200.658 162.252C200.722 162.174 200.781 162.092 200.833 162.006L201.115 162.026C201.115 162.026 202.525 160.441 201.349 157.949C200.483 156.096 200.647 147.733 200.785 143.569L200.951 141.595C201.013 141.535 201.06 141.462 201.09 141.381C203.277 141.085 205.402 140.442 207.386 139.474C207.984 139.226 208.542 138.887 209.038 138.471C210.206 137.343 209.503 130.542 207.172 120.349C204.84 110.156 202.742 111.061 202.742 111.061C202.742 111.061 197.145 110.607 194.579 107.209C192.013 103.811 190.29 103.856 190.29 103.856C190.225 103.411 190.18 102.991 190.149 102.599C190.149 102.452 190.127 102.317 190.118 102.17C190.991 101.359 191.656 100.351 192.058 99.2294C192.583 98.9475 193.228 98.8544 193.73 98.4991C193.858 98.4061 193.975 98.2982 194.077 98.1777C194.58 97.7136 194.899 97.0841 194.977 96.4041C195.057 95.6616 195.021 94.9112 194.872 94.1794C194.695 93.0967 194.432 91.9885 193.801 91.137C193.169 90.2855 192.225 89.7723 191.314 89.2958C188.848 88.0006 186.375 86.7186 183.895 85.4498C183.411 85.1538 182.87 84.9617 182.308 84.8858C181.315 84.8294 180.424 85.509 179.623 86.1547C179.304 86.4061 178.998 86.6743 178.707 86.9583C178.46 87.1776 178.234 87.4203 178.033 87.6829C177.097 88.9377 176.7 91.3005 177.111 92.8683C177.241 93.3645 177.52 93.5083 177.864 93.5027C177.354 94.5174 177.088 95.6376 177.089 96.7735C177.094 98.0171 177.412 99.2394 178.014 100.328C178.616 101.416 179.481 102.336 180.531 103.002C180.531 103.16 180.531 103.315 180.546 103.465C180.557 104.043 180.538 104.622 180.489 105.199C180.489 105.199 174.286 108.551 173.589 110.136C172.893 111.721 170.324 112.854 170.324 112.854C170.324 112.854 165.427 115.347 165.427 124.181L162.861 136.638L162.395 160.422C162.395 160.422 162.717 160.14 163.241 159.739C163.224 159.897 163.21 160.061 163.196 160.227C163.126 161.136 163.103 162.048 163.126 162.959L163.092 163.174ZM194.418 224.73C194.322 225.093 194.181 225.576 194.004 226.139C193.925 225.671 193.846 225.209 193.767 224.769C193.97 224.749 194.187 224.738 194.418 224.73Z" fill="url(#paint2_linear)"/>
<path d="M185.948 221.808C185.948 221.808 185.049 225.852 183.692 227.422C182.336 228.993 180.56 232.14 178.992 231.914C177.424 231.689 176.97 235.058 179.891 235.506C182.813 235.955 188.861 234.61 188.861 234.61C188.861 234.61 194.026 232.354 194.249 230.792C194.472 229.23 192.901 221.135 192.901 221.135L185.948 221.808Z" fill="#53526B"/>
<path opacity="0.05" d="M185.948 221.808C185.948 221.808 185.049 225.852 183.692 227.422C182.336 228.993 180.56 232.14 178.992 231.914C177.424 231.689 176.97 235.058 179.891 235.506C182.813 235.955 188.861 234.61 188.861 234.61C188.861 234.61 194.026 232.354 194.249 230.792C194.472 229.23 192.901 221.135 192.901 221.135L185.948 221.808Z" fill="black"/>
<path d="M194.257 223.605C194.257 223.605 193.358 227.648 192.002 229.219C190.646 230.789 188.861 233.936 187.296 233.71C185.731 233.485 185.274 236.854 188.195 237.302C191.116 237.751 197.179 236.403 197.179 236.403C197.179 236.403 202.344 234.147 202.567 232.585C202.79 231.023 201.219 222.928 201.219 222.928L194.257 223.605Z" fill="#53526B"/>
<path d="M173.821 162.077C173.821 162.077 175.617 181.389 176.965 183.41C178.312 185.432 179.883 194.19 179.883 194.19L182.801 212.154C182.801 212.154 183.929 222.485 184.597 223.607C185.266 224.73 193.601 224.247 193.601 224.247L188.418 164.77L173.821 162.077Z" fill="#5F5D7E"/>
<path opacity="0.05" d="M173.821 162.077C173.821 162.077 175.617 181.389 176.965 183.41C178.312 185.432 179.883 194.19 179.883 194.19L182.801 212.154C182.801 212.154 183.929 222.485 184.597 223.607C185.266 224.73 193.601 224.247 193.601 224.247L188.418 164.77L173.821 162.077Z" fill="black"/>
<path d="M170.228 152.865L170.815 154.729L173.987 164.798L174.049 164.99H174.066C174.492 165.085 183.481 167.152 185.421 167.787C185.525 167.819 185.628 167.858 185.728 167.902C186.628 168.351 187.75 184.518 187.75 184.518C187.75 184.518 188.424 199.79 188.878 200.912C189.332 202.034 191.133 225.161 192.247 224.49C193.361 223.819 201.453 224.49 201.453 224.49C202.353 223.59 201.453 211.466 201.453 211.466L199.857 189.239C199.857 189.239 200.757 176.888 199.857 174.641C198.958 172.394 198.958 157.351 198.958 157.351L180.577 154.478L178.8 154.196L170.228 152.865Z" fill="#5F5D7E"/>
<path opacity="0.02" d="M170.815 154.732L173.987 164.801L174.063 164.998C174.489 165.094 183.478 167.161 185.418 167.795H185.613L180.591 154.481L180.447 154.097L178.814 154.201L170.815 154.732Z" fill="black"/>
<path opacity="0.1" d="M191.788 107.956C191.788 107.956 183.478 116.94 178.312 109.527L173.372 112.896L174.272 118.062L171.351 157.134C171.351 157.134 178.986 156.908 184.375 158.704C185.875 159.237 187.497 159.329 189.049 158.971C190.6 158.613 192.017 157.819 193.133 156.683L192.244 122.328L194.266 111.774L191.788 107.956Z" fill="black"/>
<path d="M191.788 107.282C191.788 107.282 183.478 116.266 178.312 108.853L173.372 112.222L174.272 117.388L171.351 156.46C171.351 156.46 178.986 156.234 184.375 158.031C185.875 158.563 187.497 158.655 189.049 158.297C190.6 157.939 192.017 157.145 193.133 156.009L192.244 121.654L194.266 111.1L191.788 107.282Z" fill="#53526B"/>
<path d="M175.2 147.288V148.703H174.748V147.761H173.099V148.703H172.645V147.29L175.2 147.288Z" fill="#E82127"/>
<path d="M174.796 146.831H173.054C172.94 146.804 172.835 146.745 172.752 146.663C172.668 146.58 172.609 146.477 172.58 146.363H175.267C175.238 146.477 175.179 146.58 175.095 146.663C175.012 146.745 174.908 146.803 174.794 146.831" fill="#E82127"/>
<path d="M190.553 146.38C190.523 146.492 190.463 146.595 190.381 146.677C190.298 146.758 190.195 146.817 190.082 146.845H189.349L189.312 146.859V148.709H188.861V146.859L188.818 146.845H188.085C187.973 146.816 187.87 146.757 187.787 146.676C187.705 146.594 187.645 146.492 187.615 146.38H190.553Z" fill="#E82127"/>
<path d="M174.495 153.767C174.495 153.767 174.495 159.607 173.147 162.077C171.799 164.547 163.941 163.205 163.941 163.205L165.511 154.895L174.495 153.767Z" fill="#D6DBE6"/>
<path d="M164.795 167.245C165.979 168.373 170.888 166.117 170.55 164.775C170.313 163.825 169.484 160.424 169.013 158.496L168.686 157.14C168.686 157.14 165.81 156.24 164.795 157.14C164.426 157.467 164.166 158.755 164.045 160.312C163.836 163.016 164.048 166.529 164.795 167.245Z" fill="#FDC2CC"/>
<path d="M175.608 111.323L183.467 117.385C183.467 117.385 195.143 116.711 192.225 111.097C190.954 108.628 190.187 105.931 189.969 103.163C189.874 102.142 189.874 101.114 189.969 100.092C189.969 100.092 179.189 90.2235 180.537 101.44C180.643 102.301 180.705 103.167 180.723 104.034C180.884 112.454 175.608 111.323 175.608 111.323Z" fill="#FDC2CC"/>
<path opacity="0.1" d="M180.56 101.443C180.666 102.304 180.728 103.17 180.746 104.037C181.955 104.838 183.375 105.264 184.826 105.261C186.836 105.261 188.317 103.304 189.653 102.004C189.504 100.14 189.989 100.095 189.989 100.095C189.989 100.095 179.212 90.215 180.56 101.443Z" fill="black"/>
<path d="M184.826 104.812C188.918 104.812 192.236 101.495 192.236 97.4023C192.236 93.3098 188.918 89.9922 184.826 89.9922C180.733 89.9922 177.416 93.3098 177.416 97.4023C177.416 101.495 180.733 104.812 184.826 104.812Z" fill="#FDC2CC"/>
<path opacity="0.1" d="M190.101 104.474C190.101 104.474 191.336 104.587 193.806 107.953C196.276 111.32 201.665 111.771 201.665 111.771C201.665 111.771 203.686 110.872 205.931 120.977C208.175 131.083 208.849 137.819 207.727 138.942C206.605 140.064 202.113 141.64 199.857 141.64C199.857 141.64 199.183 155.786 200.306 158.256C201.428 160.726 200.08 162.3 200.08 162.3L190.211 161.626C190.211 161.626 186.842 157.36 186.168 149.949C185.494 142.539 183.25 121.429 184.372 118.959C185.494 116.489 190.434 110.201 190.211 109.527C189.989 108.853 190.101 104.474 190.101 104.474Z" fill="black"/>
<path d="M190.127 104.406C190.127 104.406 191.788 104.361 194.258 107.731C196.728 111.1 202.113 111.549 202.113 111.549C202.113 111.549 204.135 110.649 206.379 120.755C208.624 130.86 209.298 137.597 208.175 138.719C207.053 139.841 202.561 141.414 200.317 141.414C200.317 141.414 199.643 155.561 200.765 158.031C201.888 160.501 200.54 162.074 200.54 162.074L190.671 161.4C190.671 161.4 187.302 157.134 186.628 149.724C185.954 142.314 183.704 121.206 184.826 118.747C185.948 116.288 190.888 109.989 190.665 109.315C190.443 108.641 190.127 104.406 190.127 104.406Z" fill="#D6DBE6"/>
<path opacity="0.1" d="M164.048 160.309C165.122 159.488 167.149 158.211 169.016 158.493L168.689 157.137C168.689 157.137 165.813 156.237 164.798 157.137C164.423 157.464 164.166 158.75 164.048 160.309Z" fill="black"/>
<path opacity="0.1" d="M180.684 105.822C180.684 105.822 174.957 109.527 174.283 111.1C173.609 112.674 171.139 113.796 171.139 113.796C171.139 113.796 166.425 116.266 166.425 125.024L163.955 137.374L175.183 153.093C175.183 153.093 176.53 137.374 177.204 133.556C177.878 129.738 178.775 122.559 178.775 122.559C178.775 122.559 182.144 118.293 181.693 117.171C181.242 116.049 180.684 105.822 180.684 105.822Z" fill="black"/>
<path d="M180.684 105.754C180.684 105.754 174.712 109.079 174.041 110.649C173.37 112.22 170.897 113.345 170.897 113.345C170.897 113.345 166.182 115.815 166.182 124.573L163.712 136.923L163.264 160.501C163.264 160.501 167.307 156.683 170.226 158.479C173.144 160.275 174.94 152.639 174.94 152.639C174.94 152.639 176.288 136.92 176.962 133.102C177.636 129.284 178.532 122.105 178.532 122.105C178.532 122.105 181.902 117.839 181.451 116.717C181 115.595 180.684 105.754 180.684 105.754Z" fill="#D6DBE6"/>
<path opacity="0.1" d="M178.321 88.3878C178.701 87.9042 179.141 87.4703 179.629 87.0964C180.402 86.4535 181.256 85.7825 182.215 85.8389C182.757 85.9111 183.278 86.0975 183.743 86.3859C186.13 87.6434 188.511 88.9142 190.885 90.1981C191.762 90.6718 192.667 91.1737 193.279 92.0252C193.891 92.8767 194.139 93.9708 194.311 95.0422C194.455 95.768 194.489 96.5113 194.413 97.2472C194.343 97.9687 193.992 98.6339 193.437 99.0997C192.797 99.565 191.92 99.5678 191.384 100.177C191.074 100.529 190.939 101.023 190.719 101.451C190.499 101.88 190.118 102.297 189.684 102.221C189.25 102.145 188.988 101.685 188.926 101.22C188.898 100.749 188.925 100.275 189.007 99.8103C189.092 98.9644 188.985 98.0677 188.494 97.4389C188.156 97.0103 187.671 96.7509 187.344 96.3111C186.56 95.2509 186.918 93.4914 186.058 92.4961C185.808 92.2359 185.494 92.0466 185.147 91.9476C184.8 91.8485 184.434 91.8432 184.084 91.9321C183.388 92.0788 182.751 92.4566 182.11 92.778C181.246 93.2143 180.34 93.5637 179.406 93.8213C178.623 94.0356 177.715 94.5488 177.447 93.5055C177.038 91.9744 177.419 89.6313 178.321 88.3878Z" fill="black"/>
<path d="M178.546 88.1651C178.927 87.6814 179.366 87.2476 179.855 86.8737C180.627 86.2308 181.482 85.5597 182.44 85.6161C182.983 85.6883 183.504 85.8748 183.969 86.1631C186.354 87.4207 188.336 86.2308 191.111 89.9753C191.703 90.7761 192.893 90.9509 193.505 91.8024C194.117 92.654 194.365 93.748 194.537 94.8195C194.681 95.5453 194.715 96.2885 194.638 97.0245C194.568 97.7459 194.218 98.4111 193.663 98.877C193.023 99.3422 192.146 99.345 191.61 99.9541C191.3 100.307 191.164 100.8 190.944 101.229C190.725 101.657 190.344 102.074 189.91 101.998C189.475 101.922 189.213 101.463 189.151 100.997C189.124 100.526 189.151 100.053 189.233 99.5875C189.318 98.7416 189.21 97.845 188.72 97.2162C188.381 96.7876 187.896 96.5282 187.569 96.0883C186.785 95.0281 187.144 93.2687 186.284 92.2733C186.034 92.0132 185.72 91.8239 185.373 91.7248C185.026 91.6257 184.659 91.6204 184.31 91.7094C183.613 91.856 182.976 92.2339 182.336 92.5553C181.471 92.9915 180.566 93.341 179.632 93.5986C178.848 93.8129 177.94 94.326 177.672 93.2828C177.261 91.7517 177.644 89.4057 178.546 88.1651Z" fill="#865A61"/>
<path opacity="0.1" d="M198.786 122.438C198.786 122.438 201.78 130.074 199.533 133.218L194.593 132.09C194.593 132.09 199.085 133.438 198.411 130.742C197.737 128.046 198.786 122.438 198.786 122.438Z" fill="black"/>
<path opacity="0.1" d="M200.421 141.304C200.421 141.304 193.908 141.753 192.112 140.405C194.477 142.21 197.27 143.371 200.218 143.774L200.421 141.304Z" fill="black"/>
<path opacity="0.1" d="M172.363 126.924C172.363 126.924 168.993 137.255 169.219 138.826C169.445 140.396 169.893 157.689 169.893 157.689L170.567 157.464L170.341 138.6L172.363 126.924Z" fill="black"/>
<path d="M201.214 139.551L124.237 77.5181C123.789 77.0702 123.257 76.7152 122.671 76.4733C122.086 76.2313 121.459 76.1073 120.825 76.1082H117.554C124.091 67.7321 127.186 57.1783 126.209 46.5987C125.232 36.0191 120.257 26.2104 112.297 19.1727C104.338 12.135 93.9939 8.39815 83.3743 8.72417C72.7547 9.05019 62.6593 13.4145 55.1466 20.9272C47.6338 28.44 43.2695 38.5353 42.9435 49.1549C42.6175 59.7745 46.3543 70.1186 53.392 78.078C60.4298 86.0375 70.2384 91.0128 80.818 91.9897C91.3976 92.9665 101.951 89.8713 110.328 83.335V86.603C110.327 87.2365 110.451 87.8639 110.693 88.4493C110.935 89.0348 111.29 89.5668 111.737 90.0148L188.714 152.047C189.16 152.497 189.69 152.853 190.274 153.097C190.858 153.34 191.485 153.465 192.117 153.465C192.75 153.465 193.377 153.34 193.961 153.097C194.545 152.853 195.075 152.497 195.521 152.047L201.194 146.38C202.099 145.475 202.609 144.249 202.613 142.969C202.617 141.69 202.114 140.46 201.214 139.551ZM84.6292 76.1082C79.5465 76.1082 74.578 74.6011 70.3519 71.7773C66.1259 68.9535 62.8321 64.94 60.887 60.2442C58.942 55.5484 58.433 50.3814 59.4246 45.3964C60.4162 40.4114 62.8637 35.8324 66.4577 32.2384C70.0517 28.6444 74.6307 26.1969 79.6157 25.2053C84.6007 24.2137 89.7678 24.7226 94.4635 26.6677C99.1593 28.6127 103.173 31.9065 105.997 36.1326C108.82 40.3587 110.328 45.3272 110.328 50.4099C110.33 53.7856 109.667 57.1288 108.377 60.2481C107.086 63.3675 105.194 66.2019 102.807 68.5891C100.42 70.9764 97.5861 72.8698 94.467 74.1609C91.348 75.4521 88.005 76.1157 84.6292 76.1139V76.1082Z" fill="url(#paint3_linear)"/>
<path d="M201.778 138.987L124.801 76.9541C124.353 76.5063 123.821 76.1513 123.235 75.9093C122.65 75.6674 122.023 75.5434 121.389 75.5443H118.118C124.655 67.1682 127.75 56.6143 126.773 46.0347C125.796 35.4551 120.821 25.6465 112.861 18.6088C104.902 11.571 94.5578 7.83421 83.9382 8.16023C73.3186 8.48626 63.2232 12.8506 55.7105 20.3633C48.1978 27.876 43.8335 37.9714 43.5075 48.591C43.1814 59.2106 46.9183 69.5547 53.956 77.5141C60.9937 85.4735 70.8024 90.4489 81.382 91.4257C91.9616 92.4026 102.515 89.3073 110.892 82.7711V86.0391C110.891 86.6725 111.015 87.3 111.257 87.8854C111.498 88.4709 111.854 89.0028 112.301 89.4509L189.278 151.483C189.724 151.933 190.254 152.289 190.838 152.533C191.422 152.776 192.049 152.901 192.681 152.901C193.314 152.901 193.941 152.776 194.525 152.533C195.109 152.289 195.639 151.933 196.085 151.483L201.758 145.816C202.663 144.911 203.173 143.685 203.177 142.405C203.181 141.126 202.678 139.896 201.778 138.987ZM85.1932 75.5443C80.1105 75.5443 75.142 74.0371 70.9159 71.2133C66.6898 68.3896 63.396 64.376 61.451 59.6803C59.5059 54.9845 58.997 49.8174 59.9886 44.8324C60.9802 39.8474 63.4277 35.2684 67.0217 31.6744C70.6157 28.0805 75.1947 25.6329 80.1797 24.6414C85.1647 23.6498 90.3317 24.1587 95.0275 26.1037C99.7233 28.0488 103.737 31.3426 106.561 35.5687C109.384 39.7948 110.892 44.7633 110.892 49.8459C110.894 53.2217 110.231 56.5648 108.941 59.6842C107.65 62.8036 105.758 65.6379 103.371 68.0252C100.984 70.4125 98.1501 72.3059 95.031 73.597C91.9119 74.8882 88.5689 75.5518 85.1932 75.5499V75.5443Z" fill="#1672EC"/>
<path d="M196.054 133.33C196.054 133.33 184.817 120.445 186.396 129.287C187.524 135.575 191.785 138.944 193.806 139.618C195.828 140.292 196.054 133.33 196.054 133.33Z" fill="#FDC2CC"/>
<path d="M198.749 121.429C198.749 121.429 198.975 129.738 200.097 130.86C201.219 131.983 199.423 133.33 199.423 133.33L194.931 132.203C194.931 132.203 196.059 139.613 191.339 138.716C191.339 138.716 194.483 141.634 197.627 142.085C200.771 142.537 200.545 141.412 200.545 141.412L205.26 135.798L198.749 121.429Z" fill="#D6DBE6"/>
<path d="M199.993 141.533L204.549 140.532L203.94 138.431L201.121 137.303L197.455 138.995L199.993 141.533Z" fill="#D6DBE6"/>
<path d="M88.0044 60.4958L94.0695 55.818C94.0695 55.818 90.0063 56.6892 90.1219 50.1956C90.1205 50.174 90.1205 50.1523 90.1219 50.1307C90.1219 49.5442 90.1783 48.9013 90.2629 48.1936C91.3034 39.5288 82.9854 47.1532 82.9854 47.1532C83.057 47.9203 83.057 48.6925 82.9854 49.4596C82.9854 49.4794 82.9854 49.5019 82.9854 49.5217C82.8209 51.6569 82.2323 53.738 81.2541 55.6431C78.9956 59.9741 88.0044 60.4958 88.0044 60.4958Z" fill="#FDC2CC"/>
<path opacity="0.1" d="M83.7608 48.2556C84.79 49.2566 85.4187 51.0753 86.9667 51.0753C88.0867 51.0778 89.1825 50.7491 90.1163 50.1307C90.1163 49.5442 90.1727 48.9013 90.2573 48.1936C91.2977 39.5288 82.9797 47.1532 82.9797 47.1532C82.9797 47.1532 83.8708 46.8458 83.7608 48.2556Z" fill="black"/>
<path d="M86.9667 50.7933C90.1248 50.7933 92.6849 48.2332 92.6849 45.0751C92.6849 41.917 90.1248 39.3568 86.9667 39.3568C83.8086 39.3568 81.2484 41.917 81.2484 45.0751C81.2484 48.2332 83.8086 50.7933 86.9667 50.7933Z" fill="#FDC2CC"/>
<path opacity="0.1" d="M92.451 37.7524C92.1231 37.3379 91.7442 36.9666 91.3232 36.6471C90.6634 36.0973 89.9302 35.5192 89.1097 35.57C88.6454 35.6318 88.1995 35.7913 87.8014 36.038C85.7571 37.1152 84.0625 36.0973 81.6856 39.3004C81.178 39.9856 80.1601 40.1463 79.6357 40.8653C79.1112 41.5843 78.8997 42.5289 78.7503 43.4481C78.6268 44.0699 78.5973 44.7067 78.6629 45.3373C78.7255 45.9562 79.0294 46.5255 79.5088 46.9219C80.0558 47.3195 80.8087 47.3223 81.2683 47.844C81.4994 48.1837 81.6887 48.5501 81.8322 48.9352C82.0183 49.3017 82.3454 49.6485 82.7176 49.595C83.0898 49.5414 83.3125 49.1382 83.3661 48.7491C83.3894 48.3464 83.3657 47.9423 83.2956 47.5451C83.2251 46.8317 83.3153 46.0535 83.7355 45.5149C84.0174 45.1455 84.4404 44.9256 84.7195 44.5506C85.3906 43.6455 85.0861 42.1257 85.822 41.2854C86.0372 41.0644 86.3072 40.9044 86.6044 40.8217C86.9015 40.739 87.2153 40.7365 87.5138 40.8145C88.1065 40.9837 88.6751 41.2282 89.2056 41.542C89.9458 41.9157 90.7213 42.2151 91.5205 42.4359C92.1916 42.6191 92.9698 43.059 93.1982 42.1539C93.5563 40.823 93.2208 38.8154 92.451 37.7524Z" fill="black"/>
<path d="M92.451 37.4704C92.1231 37.056 91.7442 36.6846 91.3232 36.3651C90.6634 35.8153 89.9302 35.2373 89.1097 35.288C88.6454 35.3498 88.1995 35.5093 87.8014 35.7561C85.7571 36.8332 84.0625 35.8153 81.6856 39.0184C81.178 39.7036 80.1601 39.8643 79.6357 40.5833C79.1112 41.3024 78.8997 42.2469 78.7503 43.1662C78.6268 43.788 78.5973 44.4248 78.6629 45.0553C78.7255 45.6742 79.0294 46.2435 79.5088 46.64C80.0558 47.0375 80.8087 47.0404 81.2683 47.562C81.4994 47.9018 81.6887 48.2682 81.8322 48.6532C82.0183 49.0198 82.3454 49.3666 82.7176 49.313C83.0898 49.2594 83.3125 48.8562 83.3661 48.4671C83.3894 48.0644 83.3657 47.6604 83.2956 47.2631C83.2251 46.5497 83.3153 45.7715 83.7355 45.233C84.0174 44.8636 84.4404 44.6437 84.7195 44.2686C85.3906 43.3635 85.0861 41.8437 85.822 41.0035C86.0372 40.7825 86.3072 40.6225 86.6044 40.5398C86.9015 40.4571 87.2153 40.4546 87.5138 40.5326C88.1065 40.7018 88.6751 40.9463 89.2056 41.2601C89.9458 41.6337 90.7213 41.9331 91.5205 42.1539C92.1916 42.3372 92.9698 42.777 93.1982 41.8719C93.5563 40.5411 93.2208 38.5335 92.451 37.4704Z" fill="#005CB2"/>
<path opacity="0.1" d="M81.2484 63.5043L81.1357 67.8325C82.7743 68.2779 84.465 68.5026 86.1631 68.5008C86.4451 68.5008 86.7411 68.5008 87.0287 68.481C88.5346 68.4162 90.0273 68.172 91.4753 67.7536H91.5035C91.7714 67.6746 92.0365 67.5929 92.2987 67.5026H92.3269L92.5665 67.418C93.4792 67.0966 94.3654 66.7044 95.217 66.2451L95.2706 66.2169C95.3636 66.1661 95.4567 66.1154 95.5526 66.0618L95.1155 60.2279L95.812 56.2268L91.9998 53.6299C91.7858 53.9389 91.5462 54.2294 91.2836 54.4984C90.9073 54.8914 90.4667 55.2175 89.9809 55.4627C87.2459 56.8105 84.133 54.6675 82.585 53.3423L82.2325 53.0293C81.8321 52.6656 81.6037 52.4174 81.6037 52.4174L79.6976 55.3612L81.2484 63.5043Z" fill="black"/>
<path d="M81.2484 63.7863L81.1357 68.1145C82.7743 68.5598 84.465 68.7846 86.1631 68.7828C86.4451 68.7828 86.7411 68.7828 87.0287 68.763C88.5346 68.6982 90.0273 68.4539 91.4753 68.0356H91.5035C91.7714 67.9566 92.0365 67.8748 92.2987 67.7846H92.3269L92.5665 67.7C93.4792 67.3786 94.3654 66.9864 95.217 66.527L95.2706 66.4988C95.3636 66.4481 95.4567 66.3973 95.5526 66.3438L95.1155 60.5099L95.812 56.5088L91.9998 53.9119C91.7858 54.2209 91.5462 54.5114 91.2836 54.7803C90.9073 55.1734 90.4667 55.4995 89.9809 55.7447C87.2459 57.0925 84.133 54.9495 82.585 53.6243L82.2325 53.3113C81.8321 52.9476 81.6037 52.6994 81.6037 52.6994L79.6976 55.6432L81.2484 63.7863Z" fill="#005CB2"/>
<path d="M91.8165 64.1331C91.8165 64.1331 92.0252 65.7939 92.2987 67.779H92.3269L92.5666 67.6944C93.4792 67.373 94.3654 66.9808 95.217 66.5214L95.2706 66.4932C95.3637 66.4424 95.4567 66.3917 95.5526 66.3381C96.8026 65.6365 97.9697 64.7966 99.032 63.8343L99.1251 63.7469C99.7077 63.2195 100.255 62.6543 100.763 62.0551L100.823 61.9846C99.8159 58.491 97.7209 57.3913 97.7209 57.3913C97.7209 57.3913 95.8148 56.5229 95.2932 55.3104C94.7715 54.098 90.167 51.5349 90.167 51.5349V51.5546C90.167 51.7718 90.0937 53.7596 89.9837 55.7588C89.9133 57.0586 89.8259 58.3641 89.7243 59.1931C89.7024 59.4624 89.6532 59.7288 89.5777 59.9882C89.2196 60.8426 91.8165 64.1331 91.8165 64.1331Z" fill="#005CB2"/>
</g>
<defs>
<linearGradient id="paint0_linear" x1="145.009" y1="224.05" x2="145.009" y2="11.0784" gradientUnits="userSpaceOnUse">
<stop stop-color="#808080" stop-opacity="0.25"/>
<stop offset="0.54" stop-color="#808080" stop-opacity="0.12"/>
<stop offset="1" stop-color="#808080" stop-opacity="0.1"/>
</linearGradient>
<linearGradient id="paint1_linear" x1="10546.5" y1="17467.8" x2="10546.5" y2="13338.1" gradientUnits="userSpaceOnUse">
<stop stop-color="#808080" stop-opacity="0.25"/>
<stop offset="0.54" stop-color="#808080" stop-opacity="0.12"/>
<stop offset="1" stop-color="#808080" stop-opacity="0.1"/>
</linearGradient>
<linearGradient id="paint2_linear" x1="-49304.3" y1="132992" x2="-49304.3" y2="49848.5" gradientUnits="userSpaceOnUse">
<stop stop-color="#808080" stop-opacity="0.25"/>
<stop offset="0.54" stop-color="#808080" stop-opacity="0.12"/>
<stop offset="1" stop-color="#808080" stop-opacity="0.1"/>
</linearGradient>
<linearGradient id="paint3_linear" x1="76455.8" y1="82254.5" x2="76455.8" y2="7908.29" gradientUnits="userSpaceOnUse">
<stop stop-color="#808080" stop-opacity="0.25"/>
<stop offset="0.54" stop-color="#808080" stop-opacity="0.12"/>
<stop offset="1" stop-color="#808080" stop-opacity="0.1"/>
</linearGradient>
<clipPath id="clip0">
<rect width="314" height="238.019" fill="white"/>
</clipPath>
</defs>
</svg>
