<svg width="244" height="242" viewBox="0 0 244 242" fill="none" xmlns="http://www.w3.org/2000/svg">
<g clip-path="url(#clip0)">
<path d="M120.348 57.3561H119.022V21.0268C119.022 15.4504 116.806 10.1024 112.863 6.15931C108.92 2.21619 103.572 0.000976563 97.9957 0.000976562H21.0268C15.4504 0.000976563 10.1024 2.21619 6.15931 6.15931C2.2162 10.1024 0.000976562 15.4504 0.000976562 21.0268V220.333C0.000976562 225.909 2.2162 231.257 6.15931 235.2C10.1024 239.143 15.4504 241.359 21.0268 241.359H97.9954C103.572 241.359 108.92 239.143 112.863 235.2C116.806 231.257 119.021 225.909 119.021 220.333V83.2159H120.348L120.348 57.3561Z" fill="#3F3D56"/>
<path d="M98.8438 5.4704H88.7968C89.2591 6.60324 89.4356 7.83238 89.3109 9.04953C89.1861 10.2667 88.7639 11.4345 88.0815 12.45C87.3991 13.4655 86.4773 14.2976 85.3975 14.873C84.3177 15.4483 83.113 15.7492 81.8894 15.7492H37.7952C36.5718 15.7491 35.3672 15.4481 34.2876 14.8728C33.2079 14.2975 32.2863 13.4655 31.6039 12.4501C30.9216 11.4348 30.4994 10.2671 30.3745 9.05015C30.2497 7.83316 30.4261 6.60415 30.8881 5.47139H21.5028C17.3383 5.47139 13.3443 7.12575 10.3995 10.0705C7.45475 13.0153 5.80042 17.0093 5.80042 21.1738V220.186C5.80042 224.351 7.45475 228.345 10.3995 231.289C13.3443 234.234 17.3383 235.888 21.5028 235.888H98.8408C103.005 235.888 106.999 234.234 109.944 231.289C112.889 228.345 114.543 224.351 114.543 220.186V21.1728C114.543 17.0083 112.889 13.0143 109.944 10.0695C106.999 7.12475 103.005 5.4704 98.8408 5.4704H98.8438Z" fill="white"/>
<path d="M104.707 44.6013H15.6404V196.758H104.707V44.6013Z" fill="#E6E6E6"/>
<path d="M60.3061 224.767C65.0682 224.767 68.9286 220.906 68.9286 216.144C68.9286 211.382 65.0682 207.522 60.3061 207.522C55.5439 207.522 51.6835 211.382 51.6835 216.144C51.6835 220.906 55.5439 224.767 60.3061 224.767Z" fill="#E6E6E6"/>
<path d="M101.523 213.045L100.538 222.567L106.12 221.91L106.777 214.03L101.523 213.045Z" fill="#FFB9B9"/>
<path d="M86.7481 140.808C86.7481 140.808 58.1815 168.389 76.2408 176.926H81.8226C81.8226 176.926 93.9715 156.895 99.882 157.225L101.524 176.27L100.539 214.687L107.762 215.015C107.762 215.015 112.031 195.642 111.703 184.807L119.255 144.748L86.7481 140.808Z" fill="#2F2E41"/>
<path d="M77.8818 175.613L81.822 176.926C81.822 176.926 97.2545 173.314 98.2381 173.643L101.294 173.622L101.194 165.762H88.0611L77.8818 175.613Z" fill="#2F2E41"/>
<path d="M106.777 220.597C106.777 220.597 100.866 217.97 99.8813 220.597C98.8963 223.224 99.2247 230.776 99.2247 230.776C100.012 232.29 100.245 234.033 99.8813 235.701C99.2246 238.328 102.508 239.641 106.777 238.328C111.045 237.015 111.045 233.731 111.045 233.731L106.777 220.597Z" fill="#2F2E41"/>
<path d="M111.702 165.104C111.702 165.104 116.299 162.477 115.97 166.417C115.698 169.02 115.034 171.566 114 173.969C114 173.969 118.269 185.133 114 186.118C109.732 187.103 106.448 184.805 106.448 183.163C106.448 181.521 111.702 165.104 111.702 165.104Z" fill="#2F2E41"/>
<path d="M97.2544 75.1376L97.9114 87.6151L103.493 92.5396L109.732 83.6743V74.8093L97.2544 75.1376Z" fill="#FFB9B9"/>
<path d="M101.523 87.6147L97.7641 84.8217L95.2844 88.5997L84.1205 95.1661L90.687 112.24L91.0153 128.986C91.0153 128.986 78.8664 141.463 86.0901 143.105C93.3139 144.747 118.925 148.359 120.239 145.404C121.552 142.449 118.597 111.912 118.597 111.912L119.582 85.9725L109.732 82.411L101.523 87.6147Z" fill="#1672EC"/>
<path d="M81.4936 108.411C81.4936 108.411 78.8667 127.016 83.7922 127.016C86.7172 127.026 89.6164 126.468 92.3292 125.374L88.389 115.195L90.0306 108.3L81.4936 108.411Z" fill="#FFB9B9"/>
<path d="M89.0457 124.719L92.6576 125.375C92.6576 125.375 103.165 118.809 103.822 118.48C104.478 118.151 93.3143 112.569 93.3143 112.569L85.7622 115.525L89.0457 124.719Z" fill="#FFB9B9"/>
<path opacity="0.1" d="M93.3142 112.569L88.5718 114.425L90.031 108.301L81.494 108.41C81.494 108.41 78.8671 127.015 83.7925 127.015C86.7176 127.025 89.6168 126.468 92.3296 125.374L92.3047 125.309L92.6579 125.374C92.6579 125.374 103.165 118.807 103.822 118.478C104.478 118.149 93.3142 112.569 93.3142 112.569Z" fill="black"/>
<path d="M104.851 81.3635C110.029 81.3635 114.227 77.1657 114.227 71.9874C114.227 66.8091 110.029 62.6113 104.851 62.6113C99.6723 62.6113 95.4745 66.8091 95.4745 71.9874C95.4745 77.1657 99.6723 81.3635 104.851 81.3635Z" fill="#FFB9B9"/>
<path d="M96.5609 61.4097L94.729 60.6765C94.729 60.6765 98.5594 56.4594 103.888 56.8262L102.389 55.1759C102.389 55.1759 106.053 53.7091 109.384 57.5594C111.135 59.5824 113.161 61.9626 114.425 64.6425H116.387L115.568 66.4453L118.433 68.2491L115.492 67.9251C115.77 69.4816 115.675 71.0821 115.213 72.5946L115.292 74.0206C115.292 74.0206 111.883 68.7452 111.883 68.012V69.8456C111.883 69.8456 110.051 68.1954 110.051 67.0953L109.051 68.3788L108.55 66.3588L102.388 68.3755L103.388 66.7252L99.5573 67.2754L101.056 65.2587C101.056 65.2587 96.7264 67.6422 96.5596 69.6592C96.3928 71.6763 94.2282 74.2428 94.2282 74.2428L93.229 72.4092C93.229 72.4092 91.7313 64.16 96.5609 61.4097Z" fill="#2F2E41"/>
<path d="M113.015 102.719C111.358 104.766 110.433 107.309 110.388 109.943L92.9856 109.286C92.9856 109.286 88.3888 108.629 88.3888 111.913V115.196C88.3888 115.196 90.6874 114.211 92.0007 115.196C93.3139 116.181 107.433 124.718 114.329 121.435C121.224 118.151 122.866 105.346 122.866 105.346C122.866 105.346 116.627 100.092 113.015 102.719Z" fill="#FFB9B9"/>
<path d="M116.957 86.3011L119.584 85.9728C119.584 85.9728 124.837 86.6294 124.181 96.8084C123.524 106.987 123.196 107.644 123.196 107.644C123.196 107.644 116.3 101.405 111.375 104.361L116.957 86.3011Z" fill="#1672EC"/>
<path d="M85.4339 95.1678H84.1206C82.419 97.3172 81.4933 99.9784 81.4937 102.72C81.4636 105.656 81.0777 108.578 80.3446 111.421L90.6877 109.615L85.4339 95.1678Z" fill="#1672EC"/>
<path d="M244 44.5927H148.657V63.4168H244V44.5927Z" fill="#E6E6E6"/>
<path d="M150.689 61.3845H241.968V46.6266H150.689V61.3845Z" fill="white"/>
<path d="M158.68 48.26C159.792 48.26 160.879 48.5898 161.804 49.2076C162.728 49.8255 163.449 50.7036 163.875 51.7311C164.3 52.7586 164.412 53.8891 164.195 54.9799C163.978 56.0706 163.442 57.0725 162.656 57.8589C161.869 58.6453 160.867 59.1808 159.777 59.3978C158.686 59.6147 157.555 59.5034 156.528 59.0778C155.5 58.6522 154.622 57.9315 154.004 57.0068C153.387 56.0821 153.057 54.995 153.057 53.8829C153.057 52.3916 153.649 50.9614 154.704 49.9069C155.758 48.8524 157.188 48.26 158.68 48.26V48.26Z" fill="#009E8E"/>
<path d="M227.62 51.6824H172.126V52.9049H227.62V51.6824Z" fill="#E6E6E6"/>
<path d="M227.62 54.8606H172.126V56.083H227.62V54.8606Z" fill="#E6E6E6"/>
<path d="M244 71.4554H148.657V90.2795H244V71.4554Z" fill="#E6E6E6"/>
<path d="M150.689 88.2472H241.968V73.4893H150.689V88.2472Z" fill="white"/>
<path d="M158.68 86.3685C161.785 86.3685 164.303 83.851 164.303 80.7456C164.303 77.6401 161.785 75.1227 158.68 75.1227C155.574 75.1227 153.057 77.6401 153.057 80.7456C153.057 83.851 155.574 86.3685 158.68 86.3685Z" fill="#009E8E"/>
<path d="M227.62 78.5451H172.126V79.7675H227.62V78.5451Z" fill="#E6E6E6"/>
<path d="M227.62 81.7232H172.126V82.9456H227.62V81.7232Z" fill="#E6E6E6"/>
<path d="M244 98.3181H148.657V117.142H244V98.3181Z" fill="#E6E6E6"/>
<path d="M150.689 115.11H241.968V100.352H150.689V115.11Z" fill="white"/>
<path d="M158.68 113.231C161.785 113.231 164.303 110.714 164.303 107.608C164.303 104.503 161.785 101.985 158.68 101.985C155.574 101.985 153.057 104.503 153.057 107.608C153.057 110.714 155.574 113.231 158.68 113.231Z" fill="#009E8E"/>
<path d="M227.62 105.408H172.126V106.63H227.62V105.408Z" fill="#E6E6E6"/>
<path d="M227.62 108.586H172.126V109.808H227.62V108.586Z" fill="#E6E6E6"/>
</g>
<defs>
<clipPath id="clip0">
<rect width="244" height="241.359" fill="white"/>
</clipPath>
</defs>
</svg>
